,client_stim,lhouse_stim,rhouse_stim,lhouse_reward,rhouse_reward,diff_reward,correct,ISI,ITI,client_f1,client_f2,client_exemplar,lhouse_f1,lhouse_f2,lhouse_f3,lhouse_exemplar,rhouse_f1,rhouse_f2,rhouse_f3,rhouse_exemplar,min_reward,max_reward,is_training
0,stim/client_-1_-1b.png,stim/house_-1_-1_-1b.png,stim/house_-1_1_-1b.png,75,37,38,lhouse,400,1050,-1.0,-1.0,b,-1.0,-1.0,-1.0,b,-1.0,1.0,-1.0,b,37,75,0.0
1,stim/client_-1_-1d.png,stim/house_-1_-1_-1d.png,stim/house_1_-1_1b.png,75,62,13,lhouse,450,1250,-1.0,-1.0,d,-1.0,-1.0,-1.0,d,1.0,-1.0,1.0,b,62,75,0.0
2,stim/client_-1_-1d.png,stim/house_-1_-1_1b.png,stim/house_1_1_-1b.png,75,25,50,lhouse,450,1150,-1.0,-1.0,d,-1.0,-1.0,1.0,b,1.0,1.0,-1.0,b,25,75,0.0
3,stim/client_-1_-1b.png,stim/house_-1_1_1b.png,stim/house_-1_-1_1d.png,37,75,-38,rhouse,500,1450,-1.0,-1.0,b,-1.0,1.0,1.0,b,-1.0,-1.0,1.0,d,37,75,0.0
4,stim/client_-1_1b.png,stim/house_-1_1_-1d.png,stim/house_1_-1_-1b.png,37,62,-25,rhouse,550,1250,-1.0,2.0,b,-1.0,1.0,-1.0,d,1.0,-1.0,-1.0,b,37,62,0.0
5,stim/client_-1_1d.png,stim/house_-1_1_-1a.png,stim/house_1_1_1b.png,37,25,12,lhouse,400,1250,-1.0,2.0,d,-1.0,1.0,-1.0,a,1.0,1.0,1.0,b,25,37,0.0
6,stim/client_-1_1d.png,stim/house_1_-1_1d.png,stim/house_-1_-1_-1a.png,62,75,-13,rhouse,500,1100,-1.0,2.0,d,1.0,-1.0,1.0,d,-1.0,-1.0,-1.0,a,62,75,0.0
7,stim/client_-1_1b.png,stim/house_1_-1_1a.png,stim/house_-1_1_1d.png,62,37,25,lhouse,400,1300,-1.0,2.0,b,1.0,-1.0,1.0,a,-1.0,1.0,1.0,d,37,62,0.0
8,stim/client_-1_-1c.png,stim/house_1_-1_-1d.png,stim/house_1_1_-1d.png,62,25,37,lhouse,450,1100,-1.0,-1.0,c,1.0,-1.0,-1.0,d,1.0,1.0,-1.0,d,25,62,0.0
9,stim/client_-1_-1a.png,stim/house_1_1_-1a.png,stim/house_-1_-1_1a.png,25,75,-50,rhouse,450,1200,-1.0,-1.0,a,1.0,1.0,-1.0,a,-1.0,-1.0,1.0,a,25,75,0.0
10,stim/client_-1_-1d.png,stim/house_1_1_1d.png,stim/house_-1_1_-1c.png,25,37,-12,rhouse,450,1250,-1.0,-1.0,d,1.0,1.0,1.0,d,-1.0,1.0,-1.0,c,25,37,0.0
11,stim/client_-1_-1d.png,stim/house_1_1_1a.png,stim/house_1_-1_1c.png,25,62,-37,rhouse,450,1200,-1.0,-1.0,d,1.0,1.0,1.0,a,1.0,-1.0,1.0,c,25,62,0.0
12,stim/client_1_1b.png,stim/house_-1_-1_-1c.png,stim/house_-1_1_-1d.png,0,75,-75,rhouse,500,1300,2.0,2.0,b,-1.0,-1.0,-1.0,c,-1.0,1.0,-1.0,d,0,75,0.0
13,stim/client_1_1d.png,stim/house_-1_-1_-1d.png,stim/house_1_-1_1d.png,0,25,-25,rhouse,450,1450,2.0,2.0,d,-1.0,-1.0,-1.0,d,1.0,-1.0,1.0,d,0,25,0.0
14,stim/client_1_1d.png,stim/house_-1_-1_1c.png,stim/house_1_1_-1c.png,0,100,-100,rhouse,550,1250,2.0,2.0,d,-1.0,-1.0,1.0,c,1.0,1.0,-1.0,c,0,100,0.0
15,stim/client_1_1b.png,stim/house_-1_1_1a.png,stim/house_-1_-1_1d.png,75,0,75,lhouse,550,1300,2.0,2.0,b,-1.0,1.0,1.0,a,-1.0,-1.0,1.0,d,0,75,0.0
16,stim/client_1_-1b.png,stim/house_-1_1_-1c.png,stim/house_1_-1_-1a.png,75,25,50,lhouse,500,1000,2.0,-1.0,b,-1.0,1.0,-1.0,c,1.0,-1.0,-1.0,a,25,75,0.0
17,stim/client_1_-1d.png,stim/house_-1_1_-1b.png,stim/house_1_1_1c.png,75,100,-25,rhouse,450,1050,2.0,-1.0,d,-1.0,1.0,-1.0,b,1.0,1.0,1.0,c,75,100,0.0
18,stim/client_1_-1d.png,stim/house_1_-1_1c.png,stim/house_-1_-1_-1c.png,25,0,25,lhouse,400,1000,2.0,-1.0,d,1.0,-1.0,1.0,c,-1.0,-1.0,-1.0,c,0,25,0.0
19,stim/client_1_-1b.png,stim/house_1_-1_1b.png,stim/house_-1_1_1c.png,25,75,-50,rhouse,450,1400,2.0,-1.0,b,1.0,-1.0,1.0,b,-1.0,1.0,1.0,c,25,75,0.0
20,stim/client_1_1c.png,stim/house_1_-1_-1c.png,stim/house_1_1_-1d.png,25,100,-75,rhouse,450,1050,2.0,2.0,c,1.0,-1.0,-1.0,c,1.0,1.0,-1.0,d,25,100,0.0
21,stim/client_1_1a.png,stim/house_1_1_-1c.png,stim/house_-1_-1_1c.png,100,0,100,lhouse,450,1450,2.0,2.0,a,1.0,1.0,-1.0,c,-1.0,-1.0,1.0,c,0,100,0.0
22,stim/client_1_1d.png,stim/house_1_1_1d.png,stim/house_-1_1_-1d.png,100,75,25,lhouse,550,1150,2.0,2.0,d,1.0,1.0,1.0,d,-1.0,1.0,-1.0,d,75,100,0.0
23,stim/client_1_1d.png,stim/house_1_1_1c.png,stim/house_1_-1_1d.png,100,25,75,lhouse,500,1200,2.0,2.0,d,1.0,1.0,1.0,c,1.0,-1.0,1.0,d,25,100,0.0
24,stim/client_-1_-1a.png,stim/house_-1_-1_-1b.png,stim/house_-1_1_1d.png,75,37,38,lhouse,400,1350,-1.0,-1.0,a,-1.0,-1.0,-1.0,b,-1.0,1.0,1.0,d,37,75,0.0
25,stim/client_-1_-1d.png,stim/house_-1_-1_1b.png,stim/house_1_-1_-1d.png,75,62,13,lhouse,550,1100,-1.0,-1.0,d,-1.0,-1.0,1.0,b,1.0,-1.0,-1.0,d,62,75,0.0
26,stim/client_-1_-1c.png,stim/house_-1_-1_1d.png,stim/house_1_1_1b.png,75,25,50,lhouse,500,1350,-1.0,-1.0,c,-1.0,-1.0,1.0,d,1.0,1.0,1.0,b,25,75,0.0
27,stim/client_-1_1c.png,stim/house_-1_1_-1a.png,stim/house_-1_-1_-1d.png,37,75,-38,rhouse,450,1300,-1.0,2.0,c,-1.0,1.0,-1.0,a,-1.0,-1.0,-1.0,d,37,75,0.0
28,stim/client_-1_1a.png,stim/house_-1_1_-1b.png,stim/house_1_-1_1a.png,37,62,-25,rhouse,500,1000,-1.0,2.0,a,-1.0,1.0,-1.0,b,1.0,-1.0,1.0,a,37,62,0.0
29,stim/client_-1_1d.png,stim/house_-1_1_1c.png,stim/house_1_1_-1b.png,37,25,12,lhouse,550,1350,-1.0,2.0,d,-1.0,1.0,1.0,c,1.0,1.0,-1.0,b,25,37,0.0
30,stim/client_-1_1d.png,stim/house_1_-1_1b.png,stim/house_-1_-1_1a.png,62,75,-13,rhouse,550,1000,-1.0,2.0,d,1.0,-1.0,1.0,b,-1.0,-1.0,1.0,a,62,75,0.0
31,stim/client_-1_-1d.png,stim/house_1_-1_-1c.png,stim/house_-1_1_-1c.png,62,37,25,lhouse,550,1200,-1.0,-1.0,d,1.0,-1.0,-1.0,c,-1.0,1.0,-1.0,c,37,62,0.0
32,stim/client_-1_-1b.png,stim/house_1_-1_-1b.png,stim/house_1_1_1d.png,62,25,37,lhouse,400,1050,-1.0,-1.0,b,1.0,-1.0,-1.0,b,1.0,1.0,1.0,d,25,62,0.0
33,stim/client_-1_-1c.png,stim/house_1_1_1a.png,stim/house_-1_-1_-1a.png,25,75,-50,rhouse,500,1300,-1.0,-1.0,c,1.0,1.0,1.0,a,-1.0,-1.0,-1.0,a,25,75,0.0
34,stim/client_-1_-1a.png,stim/house_1_1_1b.png,stim/house_-1_1_1b.png,25,37,-12,rhouse,550,1000,-1.0,-1.0,a,1.0,1.0,1.0,b,-1.0,1.0,1.0,b,25,37,0.0
35,stim/client_-1_1a.png,stim/house_1_1_-1d.png,stim/house_1_-1_-1d.png,25,62,-37,rhouse,400,1300,-1.0,2.0,a,1.0,1.0,-1.0,d,1.0,-1.0,-1.0,d,25,62,0.0
36,stim/client_1_1a.png,stim/house_-1_-1_-1b.png,stim/house_-1_1_1d.png,0,75,-75,rhouse,550,1050,2.0,2.0,a,-1.0,-1.0,-1.0,b,-1.0,1.0,1.0,d,0,75,0.0
37,stim/client_1_1d.png,stim/house_-1_-1_1b.png,stim/house_1_-1_-1a.png,0,25,-25,rhouse,500,1150,2.0,2.0,d,-1.0,-1.0,1.0,b,1.0,-1.0,-1.0,a,0,25,0.0
38,stim/client_1_1c.png,stim/house_-1_-1_1c.png,stim/house_1_1_1c.png,0,100,-100,rhouse,500,1150,2.0,2.0,c,-1.0,-1.0,1.0,c,1.0,1.0,1.0,c,0,100,0.0
39,stim/client_1_-1c.png,stim/house_-1_1_-1c.png,stim/house_-1_-1_-1c.png,75,0,75,lhouse,400,1000,2.0,-1.0,c,-1.0,1.0,-1.0,c,-1.0,-1.0,-1.0,c,0,75,0.0
40,stim/client_1_-1a.png,stim/house_-1_1_-1d.png,stim/house_1_-1_1c.png,75,25,50,lhouse,400,1150,2.0,-1.0,a,-1.0,1.0,-1.0,d,1.0,-1.0,1.0,c,25,75,0.0
41,stim/client_1_-1d.png,stim/house_-1_1_1a.png,stim/house_1_1_-1a.png,75,100,-25,rhouse,500,1000,2.0,-1.0,d,-1.0,1.0,1.0,a,1.0,1.0,-1.0,a,75,100,0.0
42,stim/client_1_-1d.png,stim/house_1_-1_1c.png,stim/house_-1_-1_1c.png,25,0,25,lhouse,550,1450,2.0,-1.0,d,1.0,-1.0,1.0,c,-1.0,-1.0,1.0,c,0,25,0.0
43,stim/client_1_1d.png,stim/house_1_-1_-1b.png,stim/house_-1_1_-1c.png,25,75,-50,rhouse,500,1450,2.0,2.0,d,1.0,-1.0,-1.0,b,-1.0,1.0,-1.0,c,25,75,0.0
44,stim/client_1_1b.png,stim/house_1_-1_-1c.png,stim/house_1_1_1c.png,25,100,-75,rhouse,550,1100,2.0,2.0,b,1.0,-1.0,-1.0,c,1.0,1.0,1.0,c,25,100,0.0
45,stim/client_1_1c.png,stim/house_1_1_1d.png,stim/house_-1_-1_-1c.png,100,0,100,lhouse,450,1100,2.0,2.0,c,1.0,1.0,1.0,d,-1.0,-1.0,-1.0,c,0,100,0.0
46,stim/client_1_1a.png,stim/house_1_1_1c.png,stim/house_-1_1_1b.png,100,75,25,lhouse,550,1400,2.0,2.0,a,1.0,1.0,1.0,c,-1.0,1.0,1.0,b,75,100,0.0
47,stim/client_1_-1a.png,stim/house_1_1_-1b.png,stim/house_1_-1_-1c.png,100,25,75,lhouse,400,1250,2.0,-1.0,a,1.0,1.0,-1.0,b,1.0,-1.0,-1.0,c,25,100,0.0
48,stim/client_-1_-1d.png,stim/house_-1_-1_1d.png,stim/house_-1_1_-1c.png,75,37,38,lhouse,400,1150,-1.0,-1.0,d,-1.0,-1.0,1.0,d,-1.0,1.0,-1.0,c,37,75,0.0
49,stim/client_-1_-1b.png,stim/house_-1_-1_1c.png,stim/house_1_-1_1d.png,75,62,13,lhouse,450,1200,-1.0,-1.0,b,-1.0,-1.0,1.0,c,1.0,-1.0,1.0,d,62,75,0.0
50,stim/client_-1_1d.png,stim/house_-1_-1_-1d.png,stim/house_1_1_-1c.png,75,25,50,lhouse,450,1050,-1.0,2.0,d,-1.0,-1.0,-1.0,d,1.0,1.0,-1.0,c,25,75,0.0
51,stim/client_-1_1c.png,stim/house_-1_1_-1c.png,stim/house_-1_-1_1c.png,37,75,-38,rhouse,550,1000,-1.0,2.0,c,-1.0,1.0,-1.0,c,-1.0,-1.0,1.0,c,37,75,0.0
52,stim/client_-1_1d.png,stim/house_-1_1_1c.png,stim/house_1_-1_-1d.png,37,62,-25,rhouse,400,1050,-1.0,2.0,d,-1.0,1.0,1.0,c,1.0,-1.0,-1.0,d,37,62,0.0
53,stim/client_-1_1b.png,stim/house_-1_1_1c.png,stim/house_1_1_1c.png,37,25,12,lhouse,450,1000,-1.0,2.0,b,-1.0,1.0,1.0,c,1.0,1.0,1.0,c,25,37,0.0
54,stim/client_-1_-1b.png,stim/house_1_-1_-1c.png,stim/house_-1_-1_-1c.png,62,75,-13,rhouse,550,1450,-1.0,-1.0,b,1.0,-1.0,-1.0,c,-1.0,-1.0,-1.0,c,62,75,0.0
55,stim/client_-1_-1d.png,stim/house_1_-1_-1c.png,stim/house_-1_1_1d.png,62,37,25,lhouse,450,1000,-1.0,-1.0,d,1.0,-1.0,-1.0,c,-1.0,1.0,1.0,d,37,62,0.0
56,stim/client_-1_-1a.png,stim/house_1_-1_1c.png,stim/house_1_1_-1c.png,62,25,37,lhouse,500,1150,-1.0,-1.0,a,1.0,-1.0,1.0,c,1.0,1.0,-1.0,c,25,62,0.0
57,stim/client_-1_-1a.png,stim/house_1_1_1c.png,stim/house_-1_-1_1c.png,25,75,-50,rhouse,450,1400,-1.0,-1.0,a,1.0,1.0,1.0,c,-1.0,-1.0,1.0,c,25,75,0.0
58,stim/client_-1_1c.png,stim/house_1_1_-1d.png,stim/house_-1_1_-1d.png,25,37,-12,rhouse,550,1150,-1.0,2.0,c,1.0,1.0,-1.0,d,-1.0,1.0,-1.0,d,25,37,0.0
59,stim/client_-1_1a.png,stim/house_1_1_-1c.png,stim/house_1_-1_1c.png,25,62,-37,rhouse,500,1400,-1.0,2.0,a,1.0,1.0,-1.0,c,1.0,-1.0,1.0,c,25,62,0.0
60,stim/client_1_1d.png,stim/house_-1_-1_1d.png,stim/house_-1_1_-1a.png,0,75,-75,rhouse,400,1250,2.0,2.0,d,-1.0,-1.0,1.0,d,-1.0,1.0,-1.0,a,0,75,0.0
61,stim/client_1_1b.png,stim/house_-1_-1_1a.png,stim/house_1_-1_1c.png,0,25,-25,rhouse,500,1000,2.0,2.0,b,-1.0,-1.0,1.0,a,1.0,-1.0,1.0,c,0,25,0.0
62,stim/client_1_-1d.png,stim/house_-1_-1_-1c.png,stim/house_1_1_-1c.png,0,100,-100,rhouse,400,1150,2.0,-1.0,d,-1.0,-1.0,-1.0,c,1.0,1.0,-1.0,c,0,100,0.0
63,stim/client_1_-1c.png,stim/house_-1_1_-1b.png,stim/house_-1_-1_1b.png,75,0,75,lhouse,400,1250,2.0,-1.0,c,-1.0,1.0,-1.0,b,-1.0,-1.0,1.0,b,0,75,0.0
64,stim/client_1_-1d.png,stim/house_-1_1_1c.png,stim/house_1_-1_-1c.png,75,25,50,lhouse,450,1350,2.0,-1.0,d,-1.0,1.0,1.0,c,1.0,-1.0,-1.0,c,25,75,0.0
65,stim/client_1_-1b.png,stim/house_-1_1_1c.png,stim/house_1_1_1d.png,75,100,-25,rhouse,500,1150,2.0,-1.0,b,-1.0,1.0,1.0,c,1.0,1.0,1.0,d,75,100,0.0
66,stim/client_1_1b.png,stim/house_1_-1_-1d.png,stim/house_-1_-1_-1c.png,25,0,25,lhouse,550,1250,2.0,2.0,b,1.0,-1.0,-1.0,d,-1.0,-1.0,-1.0,c,0,25,0.0
67,stim/client_1_1d.png,stim/house_1_-1_-1a.png,stim/house_-1_1_1c.png,25,75,-50,rhouse,500,1050,2.0,2.0,d,1.0,-1.0,-1.0,a,-1.0,1.0,1.0,c,25,75,0.0
68,stim/client_1_1a.png,stim/house_1_-1_1d.png,stim/house_1_1_-1c.png,25,100,-75,rhouse,450,1350,2.0,2.0,a,1.0,-1.0,1.0,d,1.0,1.0,-1.0,c,25,100,0.0
69,stim/client_1_1a.png,stim/house_1_1_1a.png,stim/house_-1_-1_1b.png,100,0,100,lhouse,400,1400,2.0,2.0,a,1.0,1.0,1.0,a,-1.0,-1.0,1.0,b,0,100,0.0
70,stim/client_1_-1c.png,stim/house_1_1_-1d.png,stim/house_-1_1_-1b.png,100,75,25,lhouse,500,1450,2.0,-1.0,c,1.0,1.0,-1.0,d,-1.0,1.0,-1.0,b,75,100,0.0
71,stim/client_1_-1a.png,stim/house_1_1_-1a.png,stim/house_1_-1_1a.png,100,25,75,lhouse,500,1100,2.0,-1.0,a,1.0,1.0,-1.0,a,1.0,-1.0,1.0,a,25,100,0.0
72,stim/client_-1_-1c.png,stim/house_-1_-1_1d.png,stim/house_-1_1_1d.png,75,37,38,lhouse,450,1400,-1.0,-1.0,c,-1.0,-1.0,1.0,d,-1.0,1.0,1.0,d,37,75,0.0
73,stim/client_-1_1d.png,stim/house_-1_-1_-1d.png,stim/house_1_-1_-1b.png,75,62,13,lhouse,550,1350,-1.0,2.0,d,-1.0,-1.0,-1.0,d,1.0,-1.0,-1.0,b,62,75,0.0
74,stim/client_-1_1b.png,stim/house_-1_-1_-1a.png,stim/house_1_1_1b.png,75,25,50,lhouse,400,1350,-1.0,2.0,b,-1.0,-1.0,-1.0,a,1.0,1.0,1.0,b,25,75,0.0
75,stim/client_-1_1b.png,stim/house_-1_1_1a.png,stim/house_-1_-1_-1b.png,37,75,-38,rhouse,500,1250,-1.0,2.0,b,-1.0,1.0,1.0,a,-1.0,-1.0,-1.0,b,37,75,0.0
76,stim/client_-1_1d.png,stim/house_-1_1_1b.png,stim/house_1_-1_1b.png,37,62,-25,rhouse,400,1200,-1.0,2.0,d,-1.0,1.0,1.0,b,1.0,-1.0,1.0,b,37,62,0.0
77,stim/client_-1_-1b.png,stim/house_-1_1_-1d.png,stim/house_1_1_-1b.png,37,25,12,lhouse,400,1100,-1.0,-1.0,b,-1.0,1.0,-1.0,d,1.0,1.0,-1.0,b,25,37,0.0
78,stim/client_-1_-1a.png,stim/house_1_-1_-1b.png,stim/house_-1_-1_1b.png,62,75,-13,rhouse,500,1000,-1.0,-1.0,a,1.0,-1.0,-1.0,b,-1.0,-1.0,1.0,b,62,75,0.0
79,stim/client_-1_-1b.png,stim/house_1_-1_1b.png,stim/house_-1_1_-1b.png,62,37,25,lhouse,450,1000,-1.0,-1.0,b,1.0,-1.0,1.0,b,-1.0,1.0,-1.0,b,37,62,0.0
80,stim/client_-1_-1d.png,stim/house_1_-1_1d.png,stim/house_1_1_1b.png,62,25,37,lhouse,400,1200,-1.0,-1.0,d,1.0,-1.0,1.0,d,1.0,1.0,1.0,b,25,62,0.0
81,stim/client_-1_1a.png,stim/house_1_1_-1b.png,stim/house_-1_-1_-1b.png,25,75,-50,rhouse,550,1150,-1.0,2.0,a,1.0,1.0,-1.0,b,-1.0,-1.0,-1.0,b,25,75,0.0
82,stim/client_-1_1a.png,stim/house_1_1_-1d.png,stim/house_-1_1_1b.png,25,37,-12,rhouse,400,1450,-1.0,2.0,a,1.0,1.0,-1.0,d,-1.0,1.0,1.0,b,25,37,0.0
83,stim/client_-1_1c.png,stim/house_1_1_1d.png,stim/house_1_-1_-1d.png,25,62,-37,rhouse,450,1400,-1.0,2.0,c,1.0,1.0,1.0,d,1.0,-1.0,-1.0,d,25,62,0.0
84,stim/client_1_1c.png,stim/house_-1_-1_1d.png,stim/house_-1_1_1d.png,0,75,-75,rhouse,400,1400,2.0,2.0,c,-1.0,-1.0,1.0,d,-1.0,1.0,1.0,d,0,75,0.0
85,stim/client_1_-1d.png,stim/house_-1_-1_-1d.png,stim/house_1_-1_-1b.png,0,25,-25,rhouse,400,1200,2.0,-1.0,d,-1.0,-1.0,-1.0,d,1.0,-1.0,-1.0,b,0,25,0.0
86,stim/client_1_-1b.png,stim/house_-1_-1_-1b.png,stim/house_1_1_1b.png,0,100,-100,rhouse,550,1100,2.0,-1.0,b,-1.0,-1.0,-1.0,b,1.0,1.0,1.0,b,0,100,0.0
87,stim/client_1_-1b.png,stim/house_-1_1_1b.png,stim/house_-1_-1_-1d.png,75,0,75,lhouse,450,1300,2.0,-1.0,b,-1.0,1.0,1.0,b,-1.0,-1.0,-1.0,d,0,75,0.0
88,stim/client_1_-1d.png,stim/house_-1_1_1d.png,stim/house_1_-1_1b.png,75,25,50,lhouse,400,1200,2.0,-1.0,d,-1.0,1.0,1.0,d,1.0,-1.0,1.0,b,25,75,0.0
89,stim/client_1_1b.png,stim/house_-1_1_-1d.png,stim/house_1_1_-1b.png,75,100,-25,rhouse,400,1250,2.0,2.0,b,-1.0,1.0,-1.0,d,1.0,1.0,-1.0,b,75,100,0.0
90,stim/client_1_1a.png,stim/house_1_-1_-1d.png,stim/house_-1_-1_1c.png,25,0,25,lhouse,550,1300,2.0,2.0,a,1.0,-1.0,-1.0,d,-1.0,-1.0,1.0,c,0,25,0.0
91,stim/client_1_1b.png,stim/house_1_-1_1d.png,stim/house_-1_1_-1c.png,25,75,-50,rhouse,450,1000,2.0,2.0,b,1.0,-1.0,1.0,d,-1.0,1.0,-1.0,c,25,75,0.0
92,stim/client_1_1d.png,stim/house_1_-1_1c.png,stim/house_1_1_1d.png,25,100,-75,rhouse,500,1350,2.0,2.0,d,1.0,-1.0,1.0,c,1.0,1.0,1.0,d,25,100,0.0
93,stim/client_1_-1a.png,stim/house_1_1_-1d.png,stim/house_-1_-1_-1c.png,100,0,100,lhouse,400,1000,2.0,-1.0,a,1.0,1.0,-1.0,d,-1.0,-1.0,-1.0,c,0,100,0.0
94,stim/client_1_-1a.png,stim/house_1_1_-1c.png,stim/house_-1_1_1c.png,100,75,25,lhouse,550,1450,2.0,-1.0,a,1.0,1.0,-1.0,c,-1.0,1.0,1.0,c,75,100,0.0
95,stim/client_1_-1c.png,stim/house_1_1_1c.png,stim/house_1_-1_-1c.png,100,25,75,lhouse,400,1200,2.0,-1.0,c,1.0,1.0,1.0,c,1.0,-1.0,-1.0,c,25,100,0.0
96,stim/client_-1_1b.png,stim/house_-1_-1_-1a.png,stim/house_-1_1_-1a.png,75,37,38,lhouse,450,1400,-1.0,2.0,b,-1.0,-1.0,-1.0,a,-1.0,1.0,-1.0,a,37,75,0.0
97,stim/client_-1_1a.png,stim/house_-1_-1_-1b.png,stim/house_1_-1_1a.png,75,62,13,lhouse,500,1400,-1.0,2.0,a,-1.0,-1.0,-1.0,b,1.0,-1.0,1.0,a,62,75,0.0
98,stim/client_-1_1b.png,stim/house_-1_-1_1a.png,stim/house_1_1_-1a.png,75,25,50,lhouse,500,1200,-1.0,2.0,b,-1.0,-1.0,1.0,a,1.0,1.0,-1.0,a,25,75,0.0
99,stim/client_-1_1d.png,stim/house_-1_1_1a.png,stim/house_-1_-1_1b.png,37,75,-38,rhouse,400,1050,-1.0,2.0,d,-1.0,1.0,1.0,a,-1.0,-1.0,1.0,b,37,75,0.0
100,stim/client_-1_-1b.png,stim/house_-1_1_-1b.png,stim/house_1_-1_-1a.png,37,62,-25,rhouse,550,1000,-1.0,-1.0,b,-1.0,1.0,-1.0,b,1.0,-1.0,-1.0,a,37,62,0.0
101,stim/client_-1_-1d.png,stim/house_-1_1_-1d.png,stim/house_1_1_1a.png,37,25,12,lhouse,500,1050,-1.0,-1.0,d,-1.0,1.0,-1.0,d,1.0,1.0,1.0,a,25,37,0.0
102,stim/client_-1_-1b.png,stim/house_1_-1_1b.png,stim/house_-1_-1_-1d.png,62,75,-13,rhouse,500,1400,-1.0,-1.0,b,1.0,-1.0,1.0,b,-1.0,-1.0,-1.0,d,62,75,0.0
103,stim/client_-1_-1c.png,stim/house_1_-1_1d.png,stim/house_-1_1_1b.png,62,37,25,lhouse,450,1400,-1.0,-1.0,c,1.0,-1.0,1.0,d,-1.0,1.0,1.0,b,37,62,0.0
104,stim/client_-1_1b.png,stim/house_1_-1_-1b.png,stim/house_1_1_-1b.png,62,25,37,lhouse,450,1050,-1.0,2.0,b,1.0,-1.0,-1.0,b,1.0,1.0,-1.0,b,25,62,0.0
105,stim/client_-1_1d.png,stim/house_1_1_-1d.png,stim/house_-1_-1_1d.png,25,75,-50,rhouse,450,1050,-1.0,2.0,d,1.0,1.0,-1.0,d,-1.0,-1.0,1.0,d,25,75,0.0
106,stim/client_-1_1b.png,stim/house_1_1_1b.png,stim/house_-1_1_-1b.png,25,37,-12,rhouse,500,1400,-1.0,2.0,b,1.0,1.0,1.0,b,-1.0,1.0,-1.0,b,25,37,0.0
107,stim/client_-1_1c.png,stim/house_1_1_1d.png,stim/house_1_-1_1b.png,25,62,-37,rhouse,450,1450,-1.0,2.0,c,1.0,1.0,1.0,d,1.0,-1.0,1.0,b,25,62,0.0
108,stim/client_1_-1b.png,stim/house_-1_-1_-1b.png,stim/house_-1_1_-1c.png,0,75,-75,rhouse,450,1300,2.0,-1.0,b,-1.0,-1.0,-1.0,b,-1.0,1.0,-1.0,c,0,75,0.0
109,stim/client_1_-1a.png,stim/house_-1_-1_-1c.png,stim/house_1_-1_1c.png,0,25,-25,rhouse,450,1200,2.0,-1.0,a,-1.0,-1.0,-1.0,c,1.0,-1.0,1.0,c,0,25,0.0
110,stim/client_1_-1b.png,stim/house_-1_-1_1b.png,stim/house_1_1_-1b.png,0,100,-100,rhouse,400,1450,2.0,-1.0,b,-1.0,-1.0,1.0,b,1.0,1.0,-1.0,b,0,100,0.0
111,stim/client_1_-1d.png,stim/house_-1_1_1d.png,stim/house_-1_-1_1c.png,75,0,75,lhouse,400,1250,2.0,-1.0,d,-1.0,1.0,1.0,d,-1.0,-1.0,1.0,c,0,75,0.0
112,stim/client_1_1b.png,stim/house_-1_1_-1c.png,stim/house_1_-1_-1d.png,75,25,50,lhouse,500,1450,2.0,2.0,b,-1.0,1.0,-1.0,c,1.0,-1.0,-1.0,d,25,75,0.0
113,stim/client_1_1d.png,stim/house_-1_1_-1a.png,stim/house_1_1_1b.png,75,100,-25,rhouse,400,1150,2.0,2.0,d,-1.0,1.0,-1.0,a,1.0,1.0,1.0,b,75,100,0.0
114,stim/client_1_1b.png,stim/house_1_-1_1c.png,stim/house_-1_-1_-1c.png,25,0,25,lhouse,550,1450,2.0,2.0,b,1.0,-1.0,1.0,c,-1.0,-1.0,-1.0,c,0,25,0.0
115,stim/client_1_1c.png,stim/house_1_-1_1a.png,stim/house_-1_1_1b.png,25,75,-50,rhouse,400,1150,2.0,2.0,c,1.0,-1.0,1.0,a,-1.0,1.0,1.0,b,25,75,0.0
116,stim/client_1_-1b.png,stim/house_1_-1_-1b.png,stim/house_1_1_-1c.png,25,100,-75,rhouse,550,1450,2.0,-1.0,b,1.0,-1.0,-1.0,b,1.0,1.0,-1.0,c,25,100,0.0
117,stim/client_1_-1d.png,stim/house_1_1_-1c.png,stim/house_-1_-1_1c.png,100,0,100,lhouse,550,1350,2.0,-1.0,d,1.0,1.0,-1.0,c,-1.0,-1.0,1.0,c,0,100,0.0
118,stim/client_1_-1b.png,stim/house_1_1_1c.png,stim/house_-1_1_-1a.png,100,75,25,lhouse,500,1100,2.0,-1.0,b,1.0,1.0,1.0,c,-1.0,1.0,-1.0,a,75,100,0.0
119,stim/client_1_-1c.png,stim/house_1_1_1c.png,stim/house_1_-1_1a.png,100,25,75,lhouse,450,1400,2.0,-1.0,c,1.0,1.0,1.0,c,1.0,-1.0,1.0,a,25,100,0.0
120,stim/client_-1_1a.png,stim/house_-1_-1_-1a.png,stim/house_-1_1_1c.png,75,37,38,lhouse,450,1200,-1.0,2.0,a,-1.0,-1.0,-1.0,a,-1.0,1.0,1.0,c,37,75,0.0
121,stim/client_-1_1d.png,stim/house_-1_-1_1a.png,stim/house_1_-1_-1c.png,75,62,13,lhouse,400,1400,-1.0,2.0,d,-1.0,-1.0,1.0,a,1.0,-1.0,-1.0,c,62,75,0.0
122,stim/client_-1_1c.png,stim/house_-1_-1_1a.png,stim/house_1_1_1a.png,75,25,50,lhouse,450,1400,-1.0,2.0,c,-1.0,-1.0,1.0,a,1.0,1.0,1.0,a,25,75,0.0
123,stim/client_-1_-1a.png,stim/house_-1_1_-1c.png,stim/house_-1_-1_-1a.png,37,75,-38,rhouse,400,1100,-1.0,-1.0,a,-1.0,1.0,-1.0,c,-1.0,-1.0,-1.0,a,37,75,0.0
124,stim/client_-1_-1d.png,stim/house_-1_1_-1b.png,stim/house_1_-1_1c.png,37,62,-25,rhouse,550,1350,-1.0,-1.0,d,-1.0,1.0,-1.0,b,1.0,-1.0,1.0,c,37,62,0.0
125,stim/client_-1_-1c.png,stim/house_-1_1_1c.png,stim/house_1_1_-1a.png,37,25,12,lhouse,400,1300,-1.0,-1.0,c,-1.0,1.0,1.0,c,1.0,1.0,-1.0,a,25,37,0.0
126,stim/client_-1_-1a.png,stim/house_1_-1_1b.png,stim/house_-1_-1_1c.png,62,75,-13,rhouse,450,1400,-1.0,-1.0,a,1.0,-1.0,1.0,b,-1.0,-1.0,1.0,c,62,75,0.0
127,stim/client_-1_1a.png,stim/house_1_-1_-1c.png,stim/house_-1_1_-1a.png,62,37,25,lhouse,400,1400,-1.0,2.0,a,1.0,-1.0,-1.0,c,-1.0,1.0,-1.0,a,37,62,0.0
128,stim/client_-1_1c.png,stim/house_1_-1_-1a.png,stim/house_1_1_1a.png,62,25,37,lhouse,500,1150,-1.0,2.0,c,1.0,-1.0,-1.0,a,1.0,1.0,1.0,a,25,62,0.0
129,stim/client_-1_1b.png,stim/house_1_1_1c.png,stim/house_-1_-1_-1c.png,25,75,-50,rhouse,450,1300,-1.0,2.0,b,1.0,1.0,1.0,c,-1.0,-1.0,-1.0,c,25,75,0.0
130,stim/client_-1_1a.png,stim/house_1_1_1b.png,stim/house_-1_1_1a.png,25,37,-12,rhouse,400,1050,-1.0,2.0,a,1.0,1.0,1.0,b,-1.0,1.0,1.0,a,25,37,0.0
131,stim/client_-1_-1c.png,stim/house_1_1_-1a.png,stim/house_1_-1_-1a.png,25,62,-37,rhouse,500,1300,-1.0,-1.0,c,1.0,1.0,-1.0,a,1.0,-1.0,-1.0,a,25,62,0.0
132,stim/client_1_-1a.png,stim/house_-1_-1_-1b.png,stim/house_-1_1_1a.png,0,75,-75,rhouse,500,1150,2.0,-1.0,a,-1.0,-1.0,-1.0,b,-1.0,1.0,1.0,a,0,75,0.0
133,stim/client_1_-1d.png,stim/house_-1_-1_1b.png,stim/house_1_-1_-1c.png,0,25,-25,rhouse,500,1200,2.0,-1.0,d,-1.0,-1.0,1.0,b,1.0,-1.0,-1.0,c,0,25,0.0
134,stim/client_1_-1c.png,stim/house_-1_-1_1a.png,stim/house_1_1_1a.png,0,100,-100,rhouse,550,1050,2.0,-1.0,c,-1.0,-1.0,1.0,a,1.0,1.0,1.0,a,0,100,0.0
135,stim/client_1_1a.png,stim/house_-1_1_-1a.png,stim/house_-1_-1_-1a.png,75,0,75,lhouse,550,1300,2.0,2.0,a,-1.0,1.0,-1.0,a,-1.0,-1.0,-1.0,a,0,75,0.0
136,stim/client_1_1d.png,stim/house_-1_1_-1d.png,stim/house_1_-1_1a.png,75,25,50,lhouse,450,1250,2.0,2.0,d,-1.0,1.0,-1.0,d,1.0,-1.0,1.0,a,25,75,0.0
137,stim/client_1_1c.png,stim/house_-1_1_1c.png,stim/house_1_1_-1c.png,75,100,-25,rhouse,450,1050,2.0,2.0,c,-1.0,1.0,1.0,c,1.0,1.0,-1.0,c,75,100,0.0
138,stim/client_1_1a.png,stim/house_1_-1_1a.png,stim/house_-1_-1_1a.png,25,0,25,lhouse,550,1300,2.0,2.0,a,1.0,-1.0,1.0,a,-1.0,-1.0,1.0,a,0,25,0.0
139,stim/client_1_-1a.png,stim/house_1_-1_-1b.png,stim/house_-1_1_-1c.png,25,75,-50,rhouse,400,1300,2.0,-1.0,a,1.0,-1.0,-1.0,b,-1.0,1.0,-1.0,c,25,75,0.0
140,stim/client_1_-1c.png,stim/house_1_-1_-1a.png,stim/house_1_1_1a.png,25,100,-75,rhouse,450,1100,2.0,-1.0,c,1.0,-1.0,-1.0,a,1.0,1.0,1.0,a,25,100,0.0
141,stim/client_1_-1b.png,stim/house_1_1_1d.png,stim/house_-1_-1_-1a.png,100,0,100,lhouse,400,1350,2.0,-1.0,b,1.0,1.0,1.0,d,-1.0,-1.0,-1.0,a,0,100,0.0
142,stim/client_1_-1a.png,stim/house_1_1_1c.png,stim/house_-1_1_1b.png,100,75,25,lhouse,500,1350,2.0,-1.0,a,1.0,1.0,1.0,c,-1.0,1.0,1.0,b,75,100,0.0
143,stim/client_1_1c.png,stim/house_1_1_-1b.png,stim/house_1_-1_-1a.png,100,25,75,lhouse,450,1150,2.0,2.0,c,1.0,1.0,-1.0,b,1.0,-1.0,-1.0,a,25,100,0.0
144,stim/client_-1_1b.png,stim/house_-1_-1_1d.png,stim/house_-1_1_-1d.png,75,37,38,lhouse,450,1450,-1.0,2.0,b,-1.0,-1.0,1.0,d,-1.0,1.0,-1.0,d,37,75,0.0
145,stim/client_-1_1b.png,stim/house_-1_-1_1c.png,stim/house_1_-1_1d.png,75,62,13,lhouse,550,1150,-1.0,2.0,b,-1.0,-1.0,1.0,c,1.0,-1.0,1.0,d,62,75,0.0
146,stim/client_-1_-1b.png,stim/house_-1_-1_-1d.png,stim/house_1_1_-1a.png,75,25,50,lhouse,550,1000,-1.0,-1.0,b,-1.0,-1.0,-1.0,d,1.0,1.0,-1.0,a,25,75,0.0
147,stim/client_-1_-1a.png,stim/house_-1_1_-1c.png,stim/house_-1_-1_1d.png,37,75,-38,rhouse,450,1150,-1.0,-1.0,a,-1.0,1.0,-1.0,c,-1.0,-1.0,1.0,d,37,75,0.0
148,stim/client_-1_-1b.png,stim/house_-1_1_1a.png,stim/house_1_-1_-1d.png,37,62,-25,rhouse,400,1350,-1.0,-1.0,b,-1.0,1.0,1.0,a,1.0,-1.0,-1.0,d,37,62,0.0
149,stim/client_-1_-1b.png,stim/house_-1_1_1a.png,stim/house_1_1_1d.png,37,25,12,lhouse,500,1150,-1.0,-1.0,b,-1.0,1.0,1.0,a,1.0,1.0,1.0,d,25,37,0.0
150,stim/client_-1_1b.png,stim/house_1_-1_-1c.png,stim/house_-1_-1_-1c.png,62,75,-13,rhouse,450,1250,-1.0,2.0,b,1.0,-1.0,-1.0,c,-1.0,-1.0,-1.0,c,62,75,0.0
151,stim/client_-1_1b.png,stim/house_1_-1_-1d.png,stim/house_-1_1_1d.png,62,37,25,lhouse,550,1250,-1.0,2.0,b,1.0,-1.0,-1.0,d,-1.0,1.0,1.0,d,37,62,0.0
152,stim/client_-1_1a.png,stim/house_1_-1_1c.png,stim/house_1_1_-1a.png,62,25,37,lhouse,400,1300,-1.0,2.0,a,1.0,-1.0,1.0,c,1.0,1.0,-1.0,a,25,62,0.0
153,stim/client_-1_1d.png,stim/house_1_1_1c.png,stim/house_-1_-1_1c.png,25,75,-50,rhouse,500,1400,-1.0,2.0,d,1.0,1.0,1.0,c,-1.0,-1.0,1.0,c,25,75,0.0
154,stim/client_-1_-1b.png,stim/house_1_1_-1d.png,stim/house_-1_1_-1c.png,25,37,-12,rhouse,400,1300,-1.0,-1.0,b,1.0,1.0,-1.0,d,-1.0,1.0,-1.0,c,25,37,0.0
155,stim/client_-1_-1b.png,stim/house_1_1_-1c.png,stim/house_1_-1_1d.png,25,62,-37,rhouse,500,1350,-1.0,-1.0,b,1.0,1.0,-1.0,c,1.0,-1.0,1.0,d,25,62,0.0
156,stim/client_1_-1b.png,stim/house_-1_-1_1c.png,stim/house_-1_1_-1b.png,0,75,-75,rhouse,450,1250,2.0,-1.0,b,-1.0,-1.0,1.0,c,-1.0,1.0,-1.0,b,0,75,0.0
157,stim/client_1_-1b.png,stim/house_-1_-1_1b.png,stim/house_1_-1_1c.png,0,25,-25,rhouse,400,1100,2.0,-1.0,b,-1.0,-1.0,1.0,b,1.0,-1.0,1.0,c,0,25,0.0
158,stim/client_1_1b.png,stim/house_-1_-1_-1d.png,stim/house_1_1_-1d.png,0,100,-100,rhouse,550,1300,2.0,2.0,b,-1.0,-1.0,-1.0,d,1.0,1.0,-1.0,d,0,100,0.0
159,stim/client_1_1a.png,stim/house_-1_1_-1d.png,stim/house_-1_-1_1d.png,75,0,75,lhouse,450,1100,2.0,2.0,a,-1.0,1.0,-1.0,d,-1.0,-1.0,1.0,d,0,75,0.0
160,stim/client_1_1b.png,stim/house_-1_1_1c.png,stim/house_1_-1_-1c.png,75,25,50,lhouse,550,1250,2.0,2.0,b,-1.0,1.0,1.0,c,1.0,-1.0,-1.0,c,25,75,0.0
161,stim/client_1_1b.png,stim/house_-1_1_1d.png,stim/house_1_1_1c.png,75,100,-25,rhouse,400,1350,2.0,2.0,b,-1.0,1.0,1.0,d,1.0,1.0,1.0,c,75,100,0.0
162,stim/client_1_-1b.png,stim/house_1_-1_-1c.png,stim/house_-1_-1_-1c.png,25,0,25,lhouse,400,1150,2.0,-1.0,b,1.0,-1.0,-1.0,c,-1.0,-1.0,-1.0,c,0,25,0.0
163,stim/client_1_-1b.png,stim/house_1_-1_-1b.png,stim/house_-1_1_1c.png,25,75,-50,rhouse,550,1200,2.0,-1.0,b,1.0,-1.0,-1.0,b,-1.0,1.0,1.0,c,25,75,0.0
164,stim/client_1_-1a.png,stim/house_1_-1_1c.png,stim/house_1_1_-1c.png,25,100,-75,rhouse,450,1200,2.0,-1.0,a,1.0,-1.0,1.0,c,1.0,1.0,-1.0,c,25,100,0.0
165,stim/client_1_-1d.png,stim/house_1_1_1b.png,stim/house_-1_-1_1c.png,100,0,100,lhouse,500,1400,2.0,-1.0,d,1.0,1.0,1.0,b,-1.0,-1.0,1.0,c,0,100,0.0
166,stim/client_1_1b.png,stim/house_1_1_-1c.png,stim/house_-1_1_-1c.png,100,75,25,lhouse,450,1350,2.0,2.0,b,1.0,1.0,-1.0,c,-1.0,1.0,-1.0,c,75,100,0.0
167,stim/client_1_1b.png,stim/house_1_1_-1b.png,stim/house_1_-1_1b.png,100,25,75,lhouse,400,1250,2.0,2.0,b,1.0,1.0,-1.0,b,1.0,-1.0,1.0,b,25,100,0.0
168,stim/client_-1_1d.png,stim/house_-1_-1_1c.png,stim/house_-1_1_1c.png,75,37,38,lhouse,500,1350,-1.0,2.0,d,-1.0,-1.0,1.0,c,-1.0,1.0,1.0,c,37,75,0.0
169,stim/client_-1_-1a.png,stim/house_-1_-1_-1c.png,stim/house_1_-1_-1d.png,75,62,13,lhouse,450,1100,-1.0,-1.0,a,-1.0,-1.0,-1.0,c,1.0,-1.0,-1.0,d,62,75,0.0
170,stim/client_-1_-1d.png,stim/house_-1_-1_-1b.png,stim/house_1_1_1d.png,75,25,50,lhouse,500,1100,-1.0,-1.0,d,-1.0,-1.0,-1.0,b,1.0,1.0,1.0,d,25,75,0.0
171,stim/client_-1_-1d.png,stim/house_-1_1_1b.png,stim/house_-1_-1_-1d.png,37,75,-38,rhouse,400,1000,-1.0,-1.0,d,-1.0,1.0,1.0,b,-1.0,-1.0,-1.0,d,37,75,0.0
172,stim/client_-1_-1d.png,stim/house_-1_1_1d.png,stim/house_1_-1_1d.png,37,62,-25,rhouse,550,1000,-1.0,-1.0,d,-1.0,1.0,1.0,d,1.0,-1.0,1.0,d,37,62,0.0
173,stim/client_-1_1d.png,stim/house_-1_1_-1c.png,stim/house_1_1_-1d.png,37,25,12,lhouse,550,1050,-1.0,2.0,d,-1.0,1.0,-1.0,c,1.0,1.0,-1.0,d,25,37,0.0
174,stim/client_-1_1a.png,stim/house_1_-1_-1c.png,stim/house_-1_-1_1d.png,62,75,-13,rhouse,550,1400,-1.0,2.0,a,1.0,-1.0,-1.0,c,-1.0,-1.0,1.0,d,62,75,0.0
175,stim/client_-1_1c.png,stim/house_1_-1_1c.png,stim/house_-1_1_-1d.png,62,37,25,lhouse,500,1200,-1.0,2.0,c,1.0,-1.0,1.0,c,-1.0,1.0,-1.0,d,37,62,0.0
176,stim/client_-1_1d.png,stim/house_1_-1_1c.png,stim/house_1_1_1c.png,62,25,37,lhouse,400,1250,-1.0,2.0,d,1.0,-1.0,1.0,c,1.0,1.0,1.0,c,25,62,0.0
177,stim/client_-1_-1a.png,stim/house_1_1_-1c.png,stim/house_-1_-1_-1c.png,25,75,-50,rhouse,550,1050,-1.0,-1.0,a,1.0,1.0,-1.0,c,-1.0,-1.0,-1.0,c,25,75,0.0
178,stim/client_-1_-1c.png,stim/house_1_1_-1c.png,stim/house_-1_1_1c.png,25,37,-12,rhouse,400,1050,-1.0,-1.0,c,1.0,1.0,-1.0,c,-1.0,1.0,1.0,c,25,37,0.0
179,stim/client_-1_-1d.png,stim/house_1_1_1c.png,stim/house_1_-1_-1c.png,25,62,-37,rhouse,500,1300,-1.0,-1.0,d,1.0,1.0,1.0,c,1.0,-1.0,-1.0,c,25,62,0.0
180,stim/client_1_-1d.png,stim/house_-1_-1_1d.png,stim/house_-1_1_1c.png,0,75,-75,rhouse,450,1300,2.0,-1.0,d,-1.0,-1.0,1.0,d,-1.0,1.0,1.0,c,0,75,0.0
181,stim/client_1_1a.png,stim/house_-1_-1_-1c.png,stim/house_1_-1_-1d.png,0,25,-25,rhouse,450,1400,2.0,2.0,a,-1.0,-1.0,-1.0,c,1.0,-1.0,-1.0,d,0,25,0.0
182,stim/client_1_1d.png,stim/house_-1_-1_-1d.png,stim/house_1_1_1d.png,0,100,-100,rhouse,500,1000,2.0,2.0,d,-1.0,-1.0,-1.0,d,1.0,1.0,1.0,d,0,100,0.0
183,stim/client_1_1d.png,stim/house_-1_1_1d.png,stim/house_-1_-1_-1d.png,75,0,75,lhouse,450,1150,2.0,2.0,d,-1.0,1.0,1.0,d,-1.0,-1.0,-1.0,d,0,75,0.0
184,stim/client_1_1d.png,stim/house_-1_1_1d.png,stim/house_1_-1_1d.png,75,25,50,lhouse,550,1100,2.0,2.0,d,-1.0,1.0,1.0,d,1.0,-1.0,1.0,d,25,75,0.0
185,stim/client_1_-1d.png,stim/house_-1_1_-1d.png,stim/house_1_1_-1d.png,75,100,-25,rhouse,400,1200,2.0,-1.0,d,-1.0,1.0,-1.0,d,1.0,1.0,-1.0,d,75,100,0.0
186,stim/client_1_-1a.png,stim/house_1_-1_-1d.png,stim/house_-1_-1_1b.png,25,0,25,lhouse,550,1350,2.0,-1.0,a,1.0,-1.0,-1.0,d,-1.0,-1.0,1.0,b,0,25,0.0
187,stim/client_1_-1c.png,stim/house_1_-1_1d.png,stim/house_-1_1_-1b.png,25,75,-50,rhouse,550,1100,2.0,-1.0,c,1.0,-1.0,1.0,d,-1.0,1.0,-1.0,b,25,75,0.0
188,stim/client_1_-1d.png,stim/house_1_-1_1b.png,stim/house_1_1_1d.png,25,100,-75,rhouse,550,1400,2.0,-1.0,d,1.0,-1.0,1.0,b,1.0,1.0,1.0,d,25,100,0.0
189,stim/client_1_1a.png,stim/house_1_1_-1d.png,stim/house_-1_-1_-1b.png,100,0,100,lhouse,500,1450,2.0,2.0,a,1.0,1.0,-1.0,d,-1.0,-1.0,-1.0,b,0,100,0.0
190,stim/client_1_1c.png,stim/house_1_1_-1b.png,stim/house_-1_1_1b.png,100,75,25,lhouse,500,1150,2.0,2.0,c,1.0,1.0,-1.0,b,-1.0,1.0,1.0,b,75,100,0.0
191,stim/client_1_1d.png,stim/house_1_1_1b.png,stim/house_1_-1_-1b.png,100,25,75,lhouse,450,1350,2.0,2.0,d,1.0,1.0,1.0,b,1.0,-1.0,-1.0,b,25,100,0.0
192,stim/client_-1_-1c.png,stim/house_-1_-1_-1c.png,stim/house_-1_1_-1c.png,75,37,38,lhouse,550,1250,-1.0,-1.0,c,-1.0,-1.0,-1.0,c,-1.0,1.0,-1.0,c,37,75,0.0
193,stim/client_-1_-1c.png,stim/house_-1_-1_-1d.png,stim/house_1_-1_1c.png,75,62,13,lhouse,550,1150,-1.0,-1.0,c,-1.0,-1.0,-1.0,d,1.0,-1.0,1.0,c,62,75,0.0
194,stim/client_-1_-1a.png,stim/house_-1_-1_1c.png,stim/house_1_1_-1c.png,75,25,50,lhouse,450,1050,-1.0,-1.0,a,-1.0,-1.0,1.0,c,1.0,1.0,-1.0,c,25,75,0.0
195,stim/client_-1_-1c.png,stim/house_-1_1_1c.png,stim/house_-1_-1_1d.png,37,75,-38,rhouse,500,1350,-1.0,-1.0,c,-1.0,1.0,1.0,c,-1.0,-1.0,1.0,d,37,75,0.0
196,stim/client_-1_1c.png,stim/house_-1_1_-1d.png,stim/house_1_-1_-1c.png,37,62,-25,rhouse,450,1350,-1.0,2.0,c,-1.0,1.0,-1.0,d,1.0,-1.0,-1.0,c,37,62,0.0
197,stim/client_-1_1c.png,stim/house_-1_1_-1d.png,stim/house_1_1_1c.png,37,25,12,lhouse,500,1100,-1.0,2.0,c,-1.0,1.0,-1.0,d,1.0,1.0,1.0,c,25,37,0.0
198,stim/client_-1_1a.png,stim/house_1_-1_1d.png,stim/house_-1_-1_-1d.png,62,75,-13,rhouse,450,1150,-1.0,2.0,a,1.0,-1.0,1.0,d,-1.0,-1.0,-1.0,d,62,75,0.0
199,stim/client_-1_1c.png,stim/house_1_-1_1d.png,stim/house_-1_1_1d.png,62,37,25,lhouse,450,1400,-1.0,2.0,c,1.0,-1.0,1.0,d,-1.0,1.0,1.0,d,37,62,0.0
200,stim/client_-1_-1d.png,stim/house_1_-1_-1d.png,stim/house_1_1_-1d.png,62,25,37,lhouse,500,1300,-1.0,-1.0,d,1.0,-1.0,-1.0,d,1.0,1.0,-1.0,d,25,62,0.0
201,stim/client_-1_-1c.png,stim/house_1_1_-1d.png,stim/house_-1_-1_1d.png,25,75,-50,rhouse,550,1000,-1.0,-1.0,c,1.0,1.0,-1.0,d,-1.0,-1.0,1.0,d,25,75,0.0
202,stim/client_-1_-1a.png,stim/house_1_1_1d.png,stim/house_-1_1_-1c.png,25,37,-12,rhouse,550,1050,-1.0,-1.0,a,1.0,1.0,1.0,d,-1.0,1.0,-1.0,c,25,37,0.0
203,stim/client_-1_-1b.png,stim/house_1_1_1d.png,stim/house_1_-1_1c.png,25,62,-37,rhouse,450,1450,-1.0,-1.0,b,1.0,1.0,1.0,d,1.0,-1.0,1.0,c,25,62,0.0
204,stim/client_1_1c.png,stim/house_-1_-1_-1c.png,stim/house_-1_1_-1d.png,0,75,-75,rhouse,500,1350,2.0,2.0,c,-1.0,-1.0,-1.0,c,-1.0,1.0,-1.0,d,0,75,0.0
205,stim/client_1_1c.png,stim/house_-1_-1_-1d.png,stim/house_1_-1_1d.png,0,25,-25,rhouse,500,1350,2.0,2.0,c,-1.0,-1.0,-1.0,d,1.0,-1.0,1.0,d,0,25,0.0
206,stim/client_1_1a.png,stim/house_-1_-1_1c.png,stim/house_1_1_-1c.png,0,100,-100,rhouse,450,1000,2.0,2.0,a,-1.0,-1.0,1.0,c,1.0,1.0,-1.0,c,0,100,0.0
207,stim/client_1_1c.png,stim/house_-1_1_1d.png,stim/house_-1_-1_1d.png,75,0,75,lhouse,500,1000,2.0,2.0,c,-1.0,1.0,1.0,d,-1.0,-1.0,1.0,d,0,75,0.0
208,stim/client_1_-1c.png,stim/house_-1_1_-1a.png,stim/house_1_-1_-1d.png,75,25,50,lhouse,550,1000,2.0,-1.0,c,-1.0,1.0,-1.0,a,1.0,-1.0,-1.0,d,25,75,0.0
209,stim/client_1_-1c.png,stim/house_-1_1_-1b.png,stim/house_1_1_1c.png,75,100,-25,rhouse,550,1100,2.0,-1.0,c,-1.0,1.0,-1.0,b,1.0,1.0,1.0,c,75,100,0.0
210,stim/client_1_-1a.png,stim/house_1_-1_1a.png,stim/house_-1_-1_-1a.png,25,0,25,lhouse,400,1350,2.0,-1.0,a,1.0,-1.0,1.0,a,-1.0,-1.0,-1.0,a,0,25,0.0
211,stim/client_1_-1c.png,stim/house_1_-1_1b.png,stim/house_-1_1_1c.png,25,75,-50,rhouse,450,1050,2.0,-1.0,c,1.0,-1.0,1.0,b,-1.0,1.0,1.0,c,25,75,0.0
212,stim/client_1_1d.png,stim/house_1_-1_-1c.png,stim/house_1_1_-1d.png,25,100,-75,rhouse,400,1250,2.0,2.0,d,1.0,-1.0,-1.0,c,1.0,1.0,-1.0,d,25,100,0.0
213,stim/client_1_1c.png,stim/house_1_1_-1a.png,stim/house_-1_-1_1a.png,100,0,100,lhouse,400,1100,2.0,2.0,c,1.0,1.0,-1.0,a,-1.0,-1.0,1.0,a,0,100,0.0
214,stim/client_1_1a.png,stim/house_1_1_1d.png,stim/house_-1_1_-1a.png,100,75,25,lhouse,550,1050,2.0,2.0,a,1.0,1.0,1.0,d,-1.0,1.0,-1.0,a,75,100,0.0
215,stim/client_1_1b.png,stim/house_1_1_1a.png,stim/house_1_-1_1a.png,100,25,75,lhouse,550,1300,2.0,2.0,b,1.0,1.0,1.0,a,1.0,-1.0,1.0,a,25,100,0.0
216,stim/client_-1_-1b.png,stim/house_-1_-1_-1b.png,stim/house_-1_1_1d.png,75,37,38,lhouse,500,1100,-1.0,-1.0,b,-1.0,-1.0,-1.0,b,-1.0,1.0,1.0,d,37,75,0.0
217,stim/client_-1_-1d.png,stim/house_-1_-1_1b.png,stim/house_1_-1_-1d.png,75,62,13,lhouse,550,1150,-1.0,-1.0,d,-1.0,-1.0,1.0,b,1.0,-1.0,-1.0,d,62,75,0.0
218,stim/client_-1_-1c.png,stim/house_-1_-1_1a.png,stim/house_1_1_1b.png,75,25,50,lhouse,450,1000,-1.0,-1.0,c,-1.0,-1.0,1.0,a,1.0,1.0,1.0,b,25,75,0.0
219,stim/client_-1_1d.png,stim/house_-1_1_-1b.png,stim/house_-1_-1_-1a.png,37,75,-38,rhouse,550,1450,-1.0,2.0,d,-1.0,1.0,-1.0,b,-1.0,-1.0,-1.0,a,37,75,0.0
220,stim/client_-1_1c.png,stim/house_-1_1_-1b.png,stim/house_1_-1_1b.png,37,62,-25,rhouse,400,1450,-1.0,2.0,c,-1.0,1.0,-1.0,b,1.0,-1.0,1.0,b,37,62,0.0
221,stim/client_-1_1a.png,stim/house_-1_1_1a.png,stim/house_1_1_-1b.png,37,25,12,lhouse,500,1100,-1.0,2.0,a,-1.0,1.0,1.0,a,1.0,1.0,-1.0,b,25,37,0.0
222,stim/client_-1_1b.png,stim/house_1_-1_1b.png,stim/house_-1_-1_1b.png,62,75,-13,rhouse,500,1100,-1.0,2.0,b,1.0,-1.0,1.0,b,-1.0,-1.0,1.0,b,62,75,0.0
223,stim/client_-1_-1b.png,stim/house_1_-1_-1a.png,stim/house_-1_1_-1b.png,62,37,25,lhouse,450,1450,-1.0,-1.0,b,1.0,-1.0,-1.0,a,-1.0,1.0,-1.0,b,37,62,0.0
224,stim/client_-1_-1c.png,stim/house_1_-1_-1b.png,stim/house_1_1_1a.png,62,25,37,lhouse,500,1350,-1.0,-1.0,c,1.0,-1.0,-1.0,b,1.0,1.0,1.0,a,25,62,0.0
225,stim/client_-1_-1c.png,stim/house_1_1_1b.png,stim/house_-1_-1_-1b.png,25,75,-50,rhouse,500,1300,-1.0,-1.0,c,1.0,1.0,1.0,b,-1.0,-1.0,-1.0,b,25,75,0.0
226,stim/client_-1_-1b.png,stim/house_1_1_1b.png,stim/house_-1_1_1b.png,25,37,-12,rhouse,400,1200,-1.0,-1.0,b,1.0,1.0,1.0,b,-1.0,1.0,1.0,b,25,37,0.0
227,stim/client_-1_1b.png,stim/house_1_1_-1a.png,stim/house_1_-1_-1a.png,25,62,-37,rhouse,500,1050,-1.0,2.0,b,1.0,1.0,-1.0,a,1.0,-1.0,-1.0,a,25,62,0.0
228,stim/client_1_1b.png,stim/house_-1_-1_-1b.png,stim/house_-1_1_1a.png,0,75,-75,rhouse,450,1350,2.0,2.0,b,-1.0,-1.0,-1.0,b,-1.0,1.0,1.0,a,0,75,0.0
229,stim/client_1_1d.png,stim/house_-1_-1_1b.png,stim/house_1_-1_-1b.png,0,25,-25,rhouse,550,1250,2.0,2.0,d,-1.0,-1.0,1.0,b,1.0,-1.0,-1.0,b,0,25,0.0
230,stim/client_1_1c.png,stim/house_-1_-1_1b.png,stim/house_1_1_1b.png,0,100,-100,rhouse,400,1050,2.0,2.0,c,-1.0,-1.0,1.0,b,1.0,1.0,1.0,b,0,100,0.0
231,stim/client_1_-1d.png,stim/house_-1_1_-1d.png,stim/house_-1_-1_-1b.png,75,0,75,lhouse,400,1250,2.0,-1.0,d,-1.0,1.0,-1.0,d,-1.0,-1.0,-1.0,b,0,75,0.0
232,stim/client_1_-1c.png,stim/house_-1_1_-1a.png,stim/house_1_-1_1b.png,75,25,50,lhouse,550,1000,2.0,-1.0,c,-1.0,1.0,-1.0,a,1.0,-1.0,1.0,b,25,75,0.0
233,stim/client_1_-1a.png,stim/house_-1_1_1b.png,stim/house_1_1_-1b.png,75,100,-25,rhouse,500,1200,2.0,-1.0,a,-1.0,1.0,1.0,b,1.0,1.0,-1.0,b,75,100,0.0
234,stim/client_1_-1b.png,stim/house_1_-1_1d.png,stim/house_-1_-1_1d.png,25,0,25,lhouse,550,1100,2.0,-1.0,b,1.0,-1.0,1.0,d,-1.0,-1.0,1.0,d,0,25,0.0
235,stim/client_1_1b.png,stim/house_1_-1_-1b.png,stim/house_-1_1_-1c.png,25,75,-50,rhouse,500,1050,2.0,2.0,b,1.0,-1.0,-1.0,b,-1.0,1.0,-1.0,c,25,75,0.0
236,stim/client_1_1c.png,stim/house_1_-1_-1b.png,stim/house_1_1_1d.png,25,100,-75,rhouse,500,1200,2.0,2.0,c,1.0,-1.0,-1.0,b,1.0,1.0,1.0,d,25,100,0.0
237,stim/client_1_1c.png,stim/house_1_1_1a.png,stim/house_-1_-1_-1d.png,100,0,100,lhouse,500,1150,2.0,2.0,c,1.0,1.0,1.0,a,-1.0,-1.0,-1.0,d,0,100,0.0
238,stim/client_1_1b.png,stim/house_1_1_1c.png,stim/house_-1_1_1b.png,100,75,25,lhouse,500,1400,2.0,2.0,b,1.0,1.0,1.0,c,-1.0,1.0,1.0,b,75,100,0.0
239,stim/client_1_-1b.png,stim/house_1_1_-1b.png,stim/house_1_-1_-1d.png,100,25,75,lhouse,550,1200,2.0,-1.0,b,1.0,1.0,-1.0,b,1.0,-1.0,-1.0,d,25,100,0.0
240,stim/client_-1_-1a.png,stim/house_-1_-1_1a.png,stim/house_-1_1_-1d.png,75,37,38,lhouse,450,1350,-1.0,-1.0,a,-1.0,-1.0,1.0,a,-1.0,1.0,-1.0,d,37,75,0.0
241,stim/client_-1_-1a.png,stim/house_-1_-1_1c.png,stim/house_1_-1_1a.png,75,62,13,lhouse,500,1150,-1.0,-1.0,a,-1.0,-1.0,1.0,c,1.0,-1.0,1.0,a,62,75,0.0
242,stim/client_-1_1d.png,stim/house_-1_-1_-1a.png,stim/house_1_1_-1b.png,75,25,50,lhouse,550,1400,-1.0,2.0,d,-1.0,-1.0,-1.0,a,1.0,1.0,-1.0,b,25,75,0.0
243,stim/client_-1_1c.png,stim/house_-1_1_-1d.png,stim/house_-1_-1_1d.png,37,75,-38,rhouse,450,1250,-1.0,2.0,c,-1.0,1.0,-1.0,d,-1.0,-1.0,1.0,d,37,75,0.0
244,stim/client_-1_1b.png,stim/house_-1_1_1b.png,stim/house_1_-1_-1a.png,37,62,-25,rhouse,550,1300,-1.0,2.0,b,-1.0,1.0,1.0,b,1.0,-1.0,-1.0,a,37,62,0.0
245,stim/client_-1_1c.png,stim/house_-1_1_1d.png,stim/house_1_1_1d.png,37,25,12,lhouse,500,1200,-1.0,2.0,c,-1.0,1.0,1.0,d,1.0,1.0,1.0,d,25,37,0.0
246,stim/client_-1_-1d.png,stim/house_1_-1_-1c.png,stim/house_-1_-1_-1c.png,62,75,-13,rhouse,450,1450,-1.0,-1.0,d,1.0,-1.0,-1.0,c,-1.0,-1.0,-1.0,c,62,75,0.0
247,stim/client_-1_-1c.png,stim/house_1_-1_-1d.png,stim/house_-1_1_1a.png,62,37,25,lhouse,450,1300,-1.0,-1.0,c,1.0,-1.0,-1.0,d,-1.0,1.0,1.0,a,37,62,0.0
248,stim/client_-1_-1c.png,stim/house_1_-1_1c.png,stim/house_1_1_-1d.png,62,25,37,lhouse,400,1450,-1.0,-1.0,c,1.0,-1.0,1.0,c,1.0,1.0,-1.0,d,25,62,0.0
249,stim/client_-1_-1d.png,stim/house_1_1_1d.png,stim/house_-1_-1_1d.png,25,75,-50,rhouse,450,1000,-1.0,-1.0,d,1.0,1.0,1.0,d,-1.0,-1.0,1.0,d,25,75,0.0
250,stim/client_-1_1c.png,stim/house_1_1_-1a.png,stim/house_-1_1_-1c.png,25,37,-12,rhouse,550,1200,-1.0,2.0,c,1.0,1.0,-1.0,a,-1.0,1.0,-1.0,c,25,37,0.0
251,stim/client_-1_1b.png,stim/house_1_1_-1c.png,stim/house_1_-1_1d.png,25,62,-37,rhouse,550,1200,-1.0,2.0,b,1.0,1.0,-1.0,c,1.0,-1.0,1.0,d,25,62,0.0
252,stim/client_1_1a.png,stim/house_-1_-1_1c.png,stim/house_-1_1_-1a.png,0,75,-75,rhouse,550,1300,2.0,2.0,a,-1.0,-1.0,1.0,c,-1.0,1.0,-1.0,a,0,75,0.0
253,stim/client_1_1a.png,stim/house_-1_-1_1a.png,stim/house_1_-1_1d.png,0,25,-25,rhouse,550,1300,2.0,2.0,a,-1.0,-1.0,1.0,a,1.0,-1.0,1.0,d,0,25,0.0
254,stim/client_1_-1d.png,stim/house_-1_-1_-1d.png,stim/house_1_1_-1d.png,0,100,-100,rhouse,400,1350,2.0,-1.0,d,-1.0,-1.0,-1.0,d,1.0,1.0,-1.0,d,0,100,0.0
255,stim/client_1_-1c.png,stim/house_-1_1_-1d.png,stim/house_-1_-1_1d.png,75,0,75,lhouse,450,1250,2.0,-1.0,c,-1.0,1.0,-1.0,d,-1.0,-1.0,1.0,d,0,75,0.0
256,stim/client_1_-1b.png,stim/house_-1_1_1c.png,stim/house_1_-1_-1d.png,75,25,50,lhouse,400,1450,2.0,-1.0,b,-1.0,1.0,1.0,c,1.0,-1.0,-1.0,d,25,75,0.0
257,stim/client_1_-1c.png,stim/house_-1_1_1d.png,stim/house_1_1_1c.png,75,100,-25,rhouse,550,1150,2.0,-1.0,c,-1.0,1.0,1.0,d,1.0,1.0,1.0,c,75,100,0.0
258,stim/client_1_1d.png,stim/house_1_-1_-1c.png,stim/house_-1_-1_-1d.png,25,0,25,lhouse,550,1300,2.0,2.0,d,1.0,-1.0,-1.0,c,-1.0,-1.0,-1.0,d,0,25,0.0
259,stim/client_1_1c.png,stim/house_1_-1_-1a.png,stim/house_-1_1_1d.png,25,75,-50,rhouse,550,1450,2.0,2.0,c,1.0,-1.0,-1.0,a,-1.0,1.0,1.0,d,25,75,0.0
260,stim/client_1_1c.png,stim/house_1_-1_1c.png,stim/house_1_1_-1d.png,25,100,-75,rhouse,400,1050,2.0,2.0,c,1.0,-1.0,1.0,c,1.0,1.0,-1.0,d,25,100,0.0
261,stim/client_1_1d.png,stim/house_1_1_1a.png,stim/house_-1_-1_1b.png,100,0,100,lhouse,450,1050,2.0,2.0,d,1.0,1.0,1.0,a,-1.0,-1.0,1.0,b,0,100,0.0
262,stim/client_1_-1c.png,stim/house_1_1_-1c.png,stim/house_-1_1_-1b.png,100,75,25,lhouse,450,1400,2.0,-1.0,c,1.0,1.0,-1.0,c,-1.0,1.0,-1.0,b,75,100,0.0
263,stim/client_1_-1b.png,stim/house_1_1_-1a.png,stim/house_1_-1_1a.png,100,25,75,lhouse,500,1350,2.0,-1.0,b,1.0,1.0,-1.0,a,1.0,-1.0,1.0,a,25,100,0.0
264,stim/client_-1_-1c.png,stim/house_-1_-1_1b.png,stim/house_-1_1_1c.png,75,37,38,lhouse,450,1050,-1.0,-1.0,c,-1.0,-1.0,1.0,b,-1.0,1.0,1.0,c,37,75,0.0
265,stim/client_-1_1a.png,stim/house_-1_-1_-1c.png,stim/house_1_-1_-1d.png,75,62,13,lhouse,400,1250,-1.0,2.0,a,-1.0,-1.0,-1.0,c,1.0,-1.0,-1.0,d,62,75,0.0
266,stim/client_-1_1a.png,stim/house_-1_-1_-1a.png,stim/house_1_1_1d.png,75,25,50,lhouse,400,1200,-1.0,2.0,a,-1.0,-1.0,-1.0,a,1.0,1.0,1.0,d,25,75,0.0
267,stim/client_-1_1d.png,stim/house_-1_1_1a.png,stim/house_-1_-1_-1d.png,37,75,-38,rhouse,450,1350,-1.0,2.0,d,-1.0,1.0,1.0,a,-1.0,-1.0,-1.0,d,37,75,0.0
268,stim/client_-1_1c.png,stim/house_-1_1_1d.png,stim/house_1_-1_1d.png,37,62,-25,rhouse,400,1350,-1.0,2.0,c,-1.0,1.0,1.0,d,1.0,-1.0,1.0,d,37,62,0.0
269,stim/client_-1_-1a.png,stim/house_-1_1_-1b.png,stim/house_1_1_-1d.png,37,25,12,lhouse,550,1050,-1.0,-1.0,a,-1.0,1.0,-1.0,b,1.0,1.0,-1.0,d,25,37,0.0
270,stim/client_-1_-1a.png,stim/house_1_-1_-1b.png,stim/house_-1_-1_1c.png,62,75,-13,rhouse,400,1450,-1.0,-1.0,a,1.0,-1.0,-1.0,b,-1.0,-1.0,1.0,c,62,75,0.0
271,stim/client_-1_-1b.png,stim/house_1_-1_1b.png,stim/house_-1_1_-1c.png,62,37,25,lhouse,500,1450,-1.0,-1.0,b,1.0,-1.0,1.0,b,-1.0,1.0,-1.0,c,37,62,0.0
272,stim/client_-1_-1c.png,stim/house_1_-1_1b.png,stim/house_1_1_1b.png,62,25,37,lhouse,550,1150,-1.0,-1.0,c,1.0,-1.0,1.0,b,1.0,1.0,1.0,b,25,62,0.0
273,stim/client_-1_1c.png,stim/house_1_1_-1b.png,stim/house_-1_-1_-1b.png,25,75,-50,rhouse,550,1450,-1.0,2.0,c,1.0,1.0,-1.0,b,-1.0,-1.0,-1.0,b,25,75,0.0
274,stim/client_-1_1d.png,stim/house_1_1_-1b.png,stim/house_-1_1_1b.png,25,37,-12,rhouse,550,1050,-1.0,2.0,d,1.0,1.0,-1.0,b,-1.0,1.0,1.0,b,25,37,0.0
275,stim/client_-1_1c.png,stim/house_1_1_1b.png,stim/house_1_-1_-1b.png,25,62,-37,rhouse,450,1200,-1.0,2.0,c,1.0,1.0,1.0,b,1.0,-1.0,-1.0,b,25,62,0.0
276,stim/client_1_1c.png,stim/house_-1_-1_1d.png,stim/house_-1_1_1b.png,0,75,-75,rhouse,550,1350,2.0,2.0,c,-1.0,-1.0,1.0,d,-1.0,1.0,1.0,b,0,75,0.0
277,stim/client_1_-1a.png,stim/house_-1_-1_-1b.png,stim/house_1_-1_-1c.png,0,25,-25,rhouse,400,1300,2.0,-1.0,a,-1.0,-1.0,-1.0,b,1.0,-1.0,-1.0,c,0,25,0.0
278,stim/client_1_-1a.png,stim/house_-1_-1_-1c.png,stim/house_1_1_1c.png,0,100,-100,rhouse,550,1200,2.0,-1.0,a,-1.0,-1.0,-1.0,c,1.0,1.0,1.0,c,0,100,0.0
279,stim/client_1_-1d.png,stim/house_-1_1_1c.png,stim/house_-1_-1_-1d.png,75,0,75,lhouse,400,1400,2.0,-1.0,d,-1.0,1.0,1.0,c,-1.0,-1.0,-1.0,d,0,75,0.0
280,stim/client_1_-1c.png,stim/house_-1_1_1d.png,stim/house_1_-1_1c.png,75,25,50,lhouse,400,1300,2.0,-1.0,c,-1.0,1.0,1.0,d,1.0,-1.0,1.0,c,25,75,0.0
281,stim/client_1_1a.png,stim/house_-1_1_-1d.png,stim/house_1_1_-1c.png,75,100,-25,rhouse,500,1100,2.0,2.0,a,-1.0,1.0,-1.0,d,1.0,1.0,-1.0,c,75,100,0.0
282,stim/client_1_1a.png,stim/house_1_-1_-1d.png,stim/house_-1_-1_1c.png,25,0,25,lhouse,400,1300,2.0,2.0,a,1.0,-1.0,-1.0,d,-1.0,-1.0,1.0,c,0,25,0.0
283,stim/client_1_1b.png,stim/house_1_-1_1d.png,stim/house_-1_1_-1c.png,25,75,-50,rhouse,500,1300,2.0,2.0,b,1.0,-1.0,1.0,d,-1.0,1.0,-1.0,c,25,75,0.0
284,stim/client_1_1c.png,stim/house_1_-1_1c.png,stim/house_1_1_1d.png,25,100,-75,rhouse,450,1100,2.0,2.0,c,1.0,-1.0,1.0,c,1.0,1.0,1.0,d,25,100,0.0
285,stim/client_1_-1c.png,stim/house_1_1_-1d.png,stim/house_-1_-1_-1c.png,100,0,100,lhouse,450,1450,2.0,-1.0,c,1.0,1.0,-1.0,d,-1.0,-1.0,-1.0,c,0,100,0.0
286,stim/client_1_-1d.png,stim/house_1_1_-1c.png,stim/house_-1_1_1c.png,100,75,25,lhouse,400,1000,2.0,-1.0,d,1.0,1.0,-1.0,c,-1.0,1.0,1.0,c,75,100,0.0
287,stim/client_1_-1c.png,stim/house_1_1_1c.png,stim/house_1_-1_-1c.png,100,25,75,lhouse,500,1400,2.0,-1.0,c,1.0,1.0,1.0,c,1.0,-1.0,-1.0,c,25,100,0.0
288,stim/client_-1_1a.png,stim/house_-1_-1_-1b.png,stim/house_-1_1_-1b.png,75,37,38,lhouse,550,1150,-1.0,2.0,a,-1.0,-1.0,-1.0,b,-1.0,1.0,-1.0,b,37,75,0.0
289,stim/client_-1_1a.png,stim/house_-1_-1_-1a.png,stim/house_1_-1_1b.png,75,62,13,lhouse,400,1450,-1.0,2.0,a,-1.0,-1.0,-1.0,a,1.0,-1.0,1.0,b,62,75,0.0
290,stim/client_-1_1b.png,stim/house_-1_-1_1b.png,stim/house_1_1_-1b.png,75,25,50,lhouse,500,1250,-1.0,2.0,b,-1.0,-1.0,1.0,b,1.0,1.0,-1.0,b,25,75,0.0
291,stim/client_-1_1c.png,stim/house_-1_1_1b.png,stim/house_-1_-1_1a.png,37,75,-38,rhouse,400,1350,-1.0,2.0,c,-1.0,1.0,1.0,b,-1.0,-1.0,1.0,a,37,75,0.0
292,stim/client_-1_-1b.png,stim/house_-1_1_-1a.png,stim/house_1_-1_-1b.png,37,62,-25,rhouse,550,1450,-1.0,-1.0,b,-1.0,1.0,-1.0,a,1.0,-1.0,-1.0,b,37,62,0.0
293,stim/client_-1_-1d.png,stim/house_-1_1_-1a.png,stim/house_1_1_1b.png,37,25,12,lhouse,550,1400,-1.0,-1.0,d,-1.0,1.0,-1.0,a,1.0,1.0,1.0,b,25,37,0.0
294,stim/client_-1_-1a.png,stim/house_1_-1_1a.png,stim/house_-1_-1_-1a.png,62,75,-13,rhouse,550,1000,-1.0,-1.0,a,1.0,-1.0,1.0,a,-1.0,-1.0,-1.0,a,62,75,0.0
295,stim/client_-1_-1c.png,stim/house_1_-1_1a.png,stim/house_-1_1_1a.png,62,37,25,lhouse,450,1450,-1.0,-1.0,c,1.0,-1.0,1.0,a,-1.0,1.0,1.0,a,37,62,0.0
296,stim/client_-1_1b.png,stim/house_1_-1_-1a.png,stim/house_1_1_-1a.png,62,25,37,lhouse,500,1150,-1.0,2.0,b,1.0,-1.0,-1.0,a,1.0,1.0,-1.0,a,25,62,0.0
297,stim/client_-1_1d.png,stim/house_1_1_-1a.png,stim/house_-1_-1_1a.png,25,75,-50,rhouse,550,1250,-1.0,2.0,d,1.0,1.0,-1.0,a,-1.0,-1.0,1.0,a,25,75,0.0
298,stim/client_-1_1a.png,stim/house_1_1_1a.png,stim/house_-1_1_-1a.png,25,37,-12,rhouse,500,1350,-1.0,2.0,a,1.0,1.0,1.0,a,-1.0,1.0,-1.0,a,25,37,0.0
299,stim/client_-1_1c.png,stim/house_1_1_1a.png,stim/house_1_-1_1a.png,25,62,-37,rhouse,500,1100,-1.0,2.0,c,1.0,1.0,1.0,a,1.0,-1.0,1.0,a,25,62,0.0
300,stim/client_1_-1a.png,stim/house_-1_-1_-1a.png,stim/house_-1_1_-1a.png,0,75,-75,rhouse,450,1400,2.0,-1.0,a,-1.0,-1.0,-1.0,a,-1.0,1.0,-1.0,a,0,75,0.0
301,stim/client_1_-1a.png,stim/house_-1_-1_-1a.png,stim/house_1_-1_1a.png,0,25,-25,rhouse,450,1300,2.0,-1.0,a,-1.0,-1.0,-1.0,a,1.0,-1.0,1.0,a,0,25,0.0
302,stim/client_1_-1b.png,stim/house_-1_-1_1a.png,stim/house_1_1_-1a.png,0,100,-100,rhouse,500,1300,2.0,-1.0,b,-1.0,-1.0,1.0,a,1.0,1.0,-1.0,a,0,100,0.0
303,stim/client_1_-1c.png,stim/house_-1_1_1a.png,stim/house_-1_-1_1a.png,75,0,75,lhouse,450,1100,2.0,-1.0,c,-1.0,1.0,1.0,a,-1.0,-1.0,1.0,a,0,75,0.0
304,stim/client_1_1b.png,stim/house_-1_1_-1d.png,stim/house_1_-1_-1a.png,75,25,50,lhouse,550,1100,2.0,2.0,b,-1.0,1.0,-1.0,d,1.0,-1.0,-1.0,a,25,75,0.0
305,stim/client_1_1d.png,stim/house_-1_1_-1b.png,stim/house_1_1_1a.png,75,100,-25,rhouse,400,1450,2.0,2.0,d,-1.0,1.0,-1.0,b,1.0,1.0,1.0,a,75,100,0.0
306,stim/client_1_1a.png,stim/house_1_-1_1d.png,stim/house_-1_-1_-1d.png,25,0,25,lhouse,550,1150,2.0,2.0,a,1.0,-1.0,1.0,d,-1.0,-1.0,-1.0,d,0,25,0.0
307,stim/client_1_1c.png,stim/house_1_-1_1b.png,stim/house_-1_1_1a.png,25,75,-50,rhouse,450,1300,2.0,2.0,c,1.0,-1.0,1.0,b,-1.0,1.0,1.0,a,25,75,0.0
308,stim/client_1_-1b.png,stim/house_1_-1_-1a.png,stim/house_1_1_-1a.png,25,100,-75,rhouse,500,1350,2.0,-1.0,b,1.0,-1.0,-1.0,a,1.0,1.0,-1.0,a,25,100,0.0
309,stim/client_1_-1d.png,stim/house_1_1_-1d.png,stim/house_-1_-1_1d.png,100,0,100,lhouse,400,1150,2.0,-1.0,d,1.0,1.0,-1.0,d,-1.0,-1.0,1.0,d,0,100,0.0
310,stim/client_1_-1a.png,stim/house_1_1_1a.png,stim/house_-1_1_-1a.png,100,75,25,lhouse,450,1150,2.0,-1.0,a,1.0,1.0,1.0,a,-1.0,1.0,-1.0,a,75,100,0.0
311,stim/client_1_-1c.png,stim/house_1_1_1d.png,stim/house_1_-1_1a.png,100,25,75,lhouse,500,1000,2.0,-1.0,c,1.0,1.0,1.0,d,1.0,-1.0,1.0,a,25,100,0.0
312,stim/client_-1_1b.png,stim/house_-1_-1_-1b.png,stim/house_-1_1_1a.png,75,37,38,lhouse,550,1450,-1.0,2.0,b,-1.0,-1.0,-1.0,b,-1.0,1.0,1.0,a,37,75,0.0
313,stim/client_-1_1b.png,stim/house_-1_-1_1b.png,stim/house_1_-1_-1a.png,75,62,13,lhouse,500,1050,-1.0,2.0,b,-1.0,-1.0,1.0,b,1.0,-1.0,-1.0,a,62,75,0.0
314,stim/client_-1_1b.png,stim/house_-1_-1_1a.png,stim/house_1_1_1b.png,75,25,50,lhouse,450,1250,-1.0,2.0,b,-1.0,-1.0,1.0,a,1.0,1.0,1.0,b,25,75,0.0
315,stim/client_-1_-1b.png,stim/house_-1_1_-1b.png,stim/house_-1_-1_-1a.png,37,75,-38,rhouse,500,1350,-1.0,-1.0,b,-1.0,1.0,-1.0,b,-1.0,-1.0,-1.0,a,37,75,0.0
316,stim/client_-1_-1b.png,stim/house_-1_1_-1c.png,stim/house_1_-1_1b.png,37,62,-25,rhouse,500,1300,-1.0,-1.0,b,-1.0,1.0,-1.0,c,1.0,-1.0,1.0,b,37,62,0.0
317,stim/client_-1_-1b.png,stim/house_-1_1_1d.png,stim/house_1_1_-1b.png,37,25,12,lhouse,400,1400,-1.0,-1.0,b,-1.0,1.0,1.0,d,1.0,1.0,-1.0,b,25,37,0.0
318,stim/client_-1_-1d.png,stim/house_1_-1_1c.png,stim/house_-1_-1_1b.png,62,75,-13,rhouse,500,1250,-1.0,-1.0,d,1.0,-1.0,1.0,c,-1.0,-1.0,1.0,b,62,75,0.0
319,stim/client_-1_1d.png,stim/house_1_-1_-1d.png,stim/house_-1_1_-1a.png,62,37,25,lhouse,400,1100,-1.0,2.0,d,1.0,-1.0,-1.0,d,-1.0,1.0,-1.0,a,37,62,0.0
320,stim/client_-1_1d.png,stim/house_1_-1_-1b.png,stim/house_1_1_1a.png,62,25,37,lhouse,550,1350,-1.0,2.0,d,1.0,-1.0,-1.0,b,1.0,1.0,1.0,a,25,62,0.0
321,stim/client_-1_1a.png,stim/house_1_1_1b.png,stim/house_-1_-1_-1b.png,25,75,-50,rhouse,400,1100,-1.0,2.0,a,1.0,1.0,1.0,b,-1.0,-1.0,-1.0,b,25,75,0.0
322,stim/client_-1_1a.png,stim/house_1_1_1c.png,stim/house_-1_1_1b.png,25,37,-12,rhouse,450,1200,-1.0,2.0,a,1.0,1.0,1.0,c,-1.0,1.0,1.0,b,25,37,0.0
323,stim/client_-1_-1d.png,stim/house_1_1_-1a.png,stim/house_1_-1_-1a.png,25,62,-37,rhouse,400,1400,-1.0,-1.0,d,1.0,1.0,-1.0,a,1.0,-1.0,-1.0,a,25,62,0.0
324,stim/client_1_-1b.png,stim/house_-1_-1_-1c.png,stim/house_-1_1_1a.png,0,75,-75,rhouse,500,1200,2.0,-1.0,b,-1.0,-1.0,-1.0,c,-1.0,1.0,1.0,a,0,75,0.0
325,stim/client_1_-1b.png,stim/house_-1_-1_1c.png,stim/house_1_-1_-1b.png,0,25,-25,rhouse,400,1450,2.0,-1.0,b,-1.0,-1.0,1.0,c,1.0,-1.0,-1.0,b,0,25,0.0
326,stim/client_1_-1b.png,stim/house_-1_-1_1a.png,stim/house_1_1_1a.png,0,100,-100,rhouse,500,1350,2.0,-1.0,b,-1.0,-1.0,1.0,a,1.0,1.0,1.0,a,0,100,0.0
327,stim/client_1_1b.png,stim/house_-1_1_-1a.png,stim/house_-1_-1_-1a.png,75,0,75,lhouse,550,1250,2.0,2.0,b,-1.0,1.0,-1.0,a,-1.0,-1.0,-1.0,a,0,75,0.0
328,stim/client_1_1b.png,stim/house_-1_1_-1d.png,stim/house_1_-1_1a.png,75,25,50,lhouse,500,1200,2.0,2.0,b,-1.0,1.0,-1.0,d,1.0,-1.0,1.0,a,25,75,0.0
329,stim/client_1_1b.png,stim/house_-1_1_1b.png,stim/house_1_1_-1b.png,75,100,-25,rhouse,400,1200,2.0,2.0,b,-1.0,1.0,1.0,b,1.0,1.0,-1.0,b,75,100,0.0
330,stim/client_1_1d.png,stim/house_1_-1_1a.png,stim/house_-1_-1_1a.png,25,0,25,lhouse,450,1000,2.0,2.0,d,1.0,-1.0,1.0,a,-1.0,-1.0,1.0,a,0,25,0.0
331,stim/client_1_-1d.png,stim/house_1_-1_-1c.png,stim/house_-1_1_-1a.png,25,75,-50,rhouse,550,1200,2.0,-1.0,d,1.0,-1.0,-1.0,c,-1.0,1.0,-1.0,a,25,75,0.0
332,stim/client_1_-1d.png,stim/house_1_-1_-1a.png,stim/house_1_1_1a.png,25,100,-75,rhouse,500,1300,2.0,-1.0,d,1.0,-1.0,-1.0,a,1.0,1.0,1.0,a,25,100,0.0
333,stim/client_1_-1a.png,stim/house_1_1_1d.png,stim/house_-1_-1_-1a.png,100,0,100,lhouse,450,1450,2.0,-1.0,a,1.0,1.0,1.0,d,-1.0,-1.0,-1.0,a,0,100,0.0
334,stim/client_1_-1a.png,stim/house_1_1_1a.png,stim/house_-1_1_1c.png,100,75,25,lhouse,500,1100,2.0,-1.0,a,1.0,1.0,1.0,a,-1.0,1.0,1.0,c,75,100,0.0
335,stim/client_1_1d.png,stim/house_1_1_-1c.png,stim/house_1_-1_-1a.png,100,25,75,lhouse,400,1050,2.0,2.0,d,1.0,1.0,-1.0,c,1.0,-1.0,-1.0,a,25,100,0.0
336,stim/client_-1_1a.png,stim/house_-1_-1_1d.png,stim/house_-1_1_-1a.png,75,37,38,lhouse,500,1200,-1.0,2.0,a,-1.0,-1.0,1.0,d,-1.0,1.0,-1.0,a,37,75,0.0
337,stim/client_-1_1a.png,stim/house_-1_-1_1a.png,stim/house_1_-1_1d.png,75,62,13,lhouse,400,1350,-1.0,2.0,a,-1.0,-1.0,1.0,a,1.0,-1.0,1.0,d,62,75,0.0
338,stim/client_-1_-1a.png,stim/house_-1_-1_-1d.png,stim/house_1_1_-1a.png,75,25,50,lhouse,400,1200,-1.0,-1.0,a,-1.0,-1.0,-1.0,d,1.0,1.0,-1.0,a,25,75,0.0
339,stim/client_-1_-1a.png,stim/house_-1_1_-1b.png,stim/house_-1_-1_1a.png,37,75,-38,rhouse,550,1100,-1.0,-1.0,a,-1.0,1.0,-1.0,b,-1.0,-1.0,1.0,a,37,75,0.0
340,stim/client_-1_-1a.png,stim/house_-1_1_1a.png,stim/house_1_-1_-1d.png,37,62,-25,rhouse,450,1250,-1.0,-1.0,a,-1.0,1.0,1.0,a,1.0,-1.0,-1.0,d,37,62,0.0
341,stim/client_-1_-1a.png,stim/house_-1_1_1a.png,stim/house_1_1_1a.png,37,25,12,lhouse,500,1050,-1.0,-1.0,a,-1.0,1.0,1.0,a,1.0,1.0,1.0,a,25,37,0.0
342,stim/client_-1_1c.png,stim/house_1_-1_-1a.png,stim/house_-1_-1_-1a.png,62,75,-13,rhouse,400,1100,-1.0,2.0,c,1.0,-1.0,-1.0,a,-1.0,-1.0,-1.0,a,62,75,0.0
343,stim/client_-1_1d.png,stim/house_1_-1_-1a.png,stim/house_-1_1_1d.png,62,37,25,lhouse,550,1000,-1.0,2.0,d,1.0,-1.0,-1.0,a,-1.0,1.0,1.0,d,37,62,0.0
344,stim/client_-1_1a.png,stim/house_1_-1_1a.png,stim/house_1_1_-1a.png,62,25,37,lhouse,550,1000,-1.0,2.0,a,1.0,-1.0,1.0,a,1.0,1.0,-1.0,a,25,62,0.0
345,stim/client_-1_1c.png,stim/house_1_1_1b.png,stim/house_-1_-1_1b.png,25,75,-50,rhouse,550,1200,-1.0,2.0,c,1.0,1.0,1.0,b,-1.0,-1.0,1.0,b,25,75,0.0
346,stim/client_-1_-1c.png,stim/house_1_1_-1d.png,stim/house_-1_1_-1d.png,25,37,-12,rhouse,500,1150,-1.0,-1.0,c,1.0,1.0,-1.0,d,-1.0,1.0,-1.0,d,25,37,0.0
347,stim/client_-1_-1d.png,stim/house_1_1_-1a.png,stim/house_1_-1_1a.png,25,62,-37,rhouse,450,1050,-1.0,-1.0,d,1.0,1.0,-1.0,a,1.0,-1.0,1.0,a,25,62,0.0
348,stim/client_1_-1a.png,stim/house_-1_-1_1d.png,stim/house_-1_1_-1a.png,0,75,-75,rhouse,550,1250,2.0,-1.0,a,-1.0,-1.0,1.0,d,-1.0,1.0,-1.0,a,0,75,0.0
349,stim/client_1_-1a.png,stim/house_-1_-1_1a.png,stim/house_1_-1_1b.png,0,25,-25,rhouse,450,1050,2.0,-1.0,a,-1.0,-1.0,1.0,a,1.0,-1.0,1.0,b,0,25,0.0
350,stim/client_1_1a.png,stim/house_-1_-1_-1a.png,stim/house_1_1_-1a.png,0,100,-100,rhouse,400,1100,2.0,2.0,a,-1.0,-1.0,-1.0,a,1.0,1.0,-1.0,a,0,100,0.0
351,stim/client_1_1a.png,stim/house_-1_1_-1b.png,stim/house_-1_-1_1b.png,75,0,75,lhouse,450,1000,2.0,2.0,a,-1.0,1.0,-1.0,b,-1.0,-1.0,1.0,b,0,75,0.0
352,stim/client_1_1a.png,stim/house_-1_1_1a.png,stim/house_1_-1_-1b.png,75,25,50,lhouse,500,1000,2.0,2.0,a,-1.0,1.0,1.0,a,1.0,-1.0,-1.0,b,25,75,0.0
353,stim/client_1_1a.png,stim/house_-1_1_1a.png,stim/house_1_1_1d.png,75,100,-25,rhouse,500,1100,2.0,2.0,a,-1.0,1.0,1.0,a,1.0,1.0,1.0,d,75,100,0.0
354,stim/client_1_-1c.png,stim/house_1_-1_-1d.png,stim/house_-1_-1_-1b.png,25,0,25,lhouse,400,1350,2.0,-1.0,c,1.0,-1.0,-1.0,d,-1.0,-1.0,-1.0,b,0,25,0.0
355,stim/client_1_-1d.png,stim/house_1_-1_-1a.png,stim/house_-1_1_1b.png,25,75,-50,rhouse,550,1050,2.0,-1.0,d,1.0,-1.0,-1.0,a,-1.0,1.0,1.0,b,25,75,0.0
356,stim/client_1_-1a.png,stim/house_1_-1_1d.png,stim/house_1_1_-1b.png,25,100,-75,rhouse,550,1400,2.0,-1.0,a,1.0,-1.0,1.0,d,1.0,1.0,-1.0,b,25,100,0.0
357,stim/client_1_-1c.png,stim/house_1_1_1a.png,stim/house_-1_-1_1b.png,100,0,100,lhouse,550,1050,2.0,-1.0,c,1.0,1.0,1.0,a,-1.0,-1.0,1.0,b,0,100,0.0
358,stim/client_1_1c.png,stim/house_1_1_-1d.png,stim/house_-1_1_-1b.png,100,75,25,lhouse,450,1400,2.0,2.0,c,1.0,1.0,-1.0,d,-1.0,1.0,-1.0,b,75,100,0.0
359,stim/client_1_1d.png,stim/house_1_1_-1a.png,stim/house_1_-1_1a.png,100,25,75,lhouse,450,1200,2.0,2.0,d,1.0,1.0,-1.0,a,1.0,-1.0,1.0,a,25,100,0.0
360,stim/client_-1_1c.png,stim/house_-1_-1_1a.png,stim/house_-1_1_1d.png,75,37,38,lhouse,550,1100,-1.0,2.0,c,-1.0,-1.0,1.0,a,-1.0,1.0,1.0,d,37,75,0.0
361,stim/client_-1_-1a.png,stim/house_-1_-1_-1d.png,stim/house_1_-1_-1b.png,75,62,13,lhouse,400,1250,-1.0,-1.0,a,-1.0,-1.0,-1.0,d,1.0,-1.0,-1.0,b,62,75,0.0
362,stim/client_-1_-1c.png,stim/house_-1_-1_-1a.png,stim/house_1_1_1b.png,75,25,50,lhouse,500,1150,-1.0,-1.0,c,-1.0,-1.0,-1.0,a,1.0,1.0,1.0,b,25,75,0.0
363,stim/client_-1_-1c.png,stim/house_-1_1_1a.png,stim/house_-1_-1_-1b.png,37,75,-38,rhouse,450,1450,-1.0,-1.0,c,-1.0,1.0,1.0,a,-1.0,-1.0,-1.0,b,37,75,0.0
364,stim/client_-1_-1a.png,stim/house_-1_1_1b.png,stim/house_1_-1_1b.png,37,62,-25,rhouse,400,1000,-1.0,-1.0,a,-1.0,1.0,1.0,b,1.0,-1.0,1.0,b,37,62,0.0
365,stim/client_-1_1a.png,stim/house_-1_1_-1a.png,stim/house_1_1_-1b.png,37,25,12,lhouse,500,1250,-1.0,2.0,a,-1.0,1.0,-1.0,a,1.0,1.0,-1.0,b,25,37,0.0
366,stim/client_-1_1d.png,stim/house_1_-1_-1b.png,stim/house_-1_-1_1a.png,62,75,-13,rhouse,500,1000,-1.0,2.0,d,1.0,-1.0,-1.0,b,-1.0,-1.0,1.0,a,62,75,0.0
367,stim/client_-1_1b.png,stim/house_1_-1_1b.png,stim/house_-1_1_-1a.png,62,37,25,lhouse,400,1300,-1.0,2.0,b,1.0,-1.0,1.0,b,-1.0,1.0,-1.0,a,37,62,0.0
368,stim/client_-1_1c.png,stim/house_1_-1_1a.png,stim/house_1_1_1b.png,62,25,37,lhouse,400,1450,-1.0,2.0,c,1.0,-1.0,1.0,a,1.0,1.0,1.0,b,25,62,0.0
369,stim/client_-1_-1d.png,stim/house_1_1_-1b.png,stim/house_-1_-1_-1b.png,25,75,-50,rhouse,500,1250,-1.0,-1.0,d,1.0,1.0,-1.0,b,-1.0,-1.0,-1.0,b,25,75,0.0
370,stim/client_-1_-1b.png,stim/house_1_1_-1a.png,stim/house_-1_1_1b.png,25,37,-12,rhouse,400,1200,-1.0,-1.0,b,1.0,1.0,-1.0,a,-1.0,1.0,1.0,b,25,37,0.0
371,stim/client_-1_-1c.png,stim/house_1_1_1a.png,stim/house_1_-1_-1a.png,25,62,-37,rhouse,450,1450,-1.0,-1.0,c,1.0,1.0,1.0,a,1.0,-1.0,-1.0,a,25,62,0.0
372,stim/client_1_-1c.png,stim/house_-1_-1_1b.png,stim/house_-1_1_1a.png,0,75,-75,rhouse,400,1250,2.0,-1.0,c,-1.0,-1.0,1.0,b,-1.0,1.0,1.0,a,0,75,0.0
373,stim/client_1_1a.png,stim/house_-1_-1_-1a.png,stim/house_1_-1_-1a.png,0,25,-25,rhouse,550,1250,2.0,2.0,a,-1.0,-1.0,-1.0,a,1.0,-1.0,-1.0,a,0,25,0.0
374,stim/client_1_1c.png,stim/house_-1_-1_-1a.png,stim/house_1_1_1a.png,0,100,-100,rhouse,400,1400,2.0,2.0,c,-1.0,-1.0,-1.0,a,1.0,1.0,1.0,a,0,100,0.0
375,stim/client_1_1c.png,stim/house_-1_1_1a.png,stim/house_-1_-1_-1b.png,75,0,75,lhouse,400,1150,2.0,2.0,c,-1.0,1.0,1.0,a,-1.0,-1.0,-1.0,b,0,75,0.0
376,stim/client_1_1a.png,stim/house_-1_1_1b.png,stim/house_1_-1_1a.png,75,25,50,lhouse,400,1150,2.0,2.0,a,-1.0,1.0,1.0,b,1.0,-1.0,1.0,a,25,75,0.0
377,stim/client_1_-1a.png,stim/house_-1_1_-1b.png,stim/house_1_1_-1a.png,75,100,-25,rhouse,450,1000,2.0,-1.0,a,-1.0,1.0,-1.0,b,1.0,1.0,-1.0,a,75,100,0.0
378,stim/client_1_-1d.png,stim/house_1_-1_-1b.png,stim/house_-1_-1_1c.png,25,0,25,lhouse,550,1400,2.0,-1.0,d,1.0,-1.0,-1.0,b,-1.0,-1.0,1.0,c,0,25,0.0
379,stim/client_1_-1b.png,stim/house_1_-1_1b.png,stim/house_-1_1_-1c.png,25,75,-50,rhouse,550,1250,2.0,-1.0,b,1.0,-1.0,1.0,b,-1.0,1.0,-1.0,c,25,75,0.0
380,stim/client_1_-1c.png,stim/house_1_-1_1c.png,stim/house_1_1_1b.png,25,100,-75,rhouse,500,1100,2.0,-1.0,c,1.0,-1.0,1.0,c,1.0,1.0,1.0,b,25,100,0.0
381,stim/client_1_1d.png,stim/house_1_1_-1b.png,stim/house_-1_-1_-1c.png,100,0,100,lhouse,400,1000,2.0,2.0,d,1.0,1.0,-1.0,b,-1.0,-1.0,-1.0,c,0,100,0.0
382,stim/client_1_1b.png,stim/house_1_1_-1c.png,stim/house_-1_1_1c.png,100,75,25,lhouse,500,1150,2.0,2.0,b,1.0,1.0,-1.0,c,-1.0,1.0,1.0,c,75,100,0.0
383,stim/client_1_1c.png,stim/house_1_1_1c.png,stim/house_1_-1_-1c.png,100,25,75,lhouse,450,1200,2.0,2.0,c,1.0,1.0,1.0,c,1.0,-1.0,-1.0,c,25,100,0.0
