,client_stim,lhouse_stim,rhouse_stim,lhouse_reward,rhouse_reward,diff_reward,correct,ISI,ITI,client_f1,client_f2,client_f3,client_exemplar,lhouse_f1,lhouse_f2,lhouse_f3,lhouse_exemplar,rhouse_f1,rhouse_f2,rhouse_f3,rhouse_exemplar,min_reward,max_reward,is_training
0,stim/client_-1_1_-1d.png,stim/house_1_-1_1c.png,stim/house_-1_1_1c.png,75,25,50,lhouse,450,1300,-1.0,1.0,-1.0,d,1.0,-1.0,1.0,c,-1.0,1.0,1.0,c,25,75,0.0
1,stim/client_-1_-1_-1d.png,stim/house_-1_1_-1c.png,stim/house_1_1_-1c.png,37,25,12,lhouse,450,1200,-1.0,-1.0,-1.0,d,-1.0,1.0,-1.0,c,1.0,1.0,-1.0,c,25,37,0.0
2,stim/client_-1_1_1d.png,stim/house_-1_1_-1b.png,stim/house_-1_-1_1c.png,25,100,-75,rhouse,550,1150,-1.0,1.0,1.0,d,-1.0,1.0,-1.0,b,-1.0,-1.0,1.0,c,25,100,0.0
