,client_stim,lhouse_stim,rhouse_stim,lhouse_reward,rhouse_reward,diff_reward,correct,ISI,ITI,client_f1,client_f2,client_f3,client_exemplar,lhouse_f1,lhouse_f2,lhouse_f3,lhouse_exemplar,rhouse_f1,rhouse_f2,rhouse_f3,rhouse_exemplar,min_reward,max_reward,is_training
0,stim/client_-1_1_-1c.png,stim/house_1_1_1c.png,stim/house_-1_-1_-1c.png,0,100,-100,rhouse,550,1150,-1.0,1.0,-1.0,c,1.0,1.0,1.0,c,-1.0,-1.0,-1.0,c,0,100,0.0
1,stim/client_1_-1_-1c.png,stim/house_-1_1_-1c.png,stim/house_1_-1_-1c.png,75,25,50,lhouse,550,1400,1.0,-1.0,-1.0,c,-1.0,1.0,-1.0,c,1.0,-1.0,-1.0,c,25,75,0.0
2,stim/client_-1_1_1c.png,stim/house_1_1_1c.png,stim/house_1_-1_-1c.png,0,75,-75,rhouse,450,1400,-1.0,1.0,1.0,c,1.0,1.0,1.0,c,1.0,-1.0,-1.0,c,0,75,0.0
