,client_stim,lhouse_stim,rhouse_stim,lhouse_reward,rhouse_reward,diff_reward,correct,ISI,ITI,client_f1,client_f2,client_f3,client_exemplar,lhouse_f1,lhouse_f2,lhouse_f3,lhouse_exemplar,rhouse_f1,rhouse_f2,rhouse_f3,rhouse_exemplar,min_reward,max_reward,is_training
0,stim/client_1_1_-1a.png,stim/house_-1_1_1a.png,stim/house_1_-1_1a.png,62,37,25,lhouse,450,1400,1.0,1.0,-1.0,a,-1.0,1.0,1.0,a,1.0,-1.0,1.0,a,37,62,0.0
1,stim/client_1_1_1a.png,stim/house_1_1_1a.png,stim/house_-1_1_1a.png,75,62,13,lhouse,450,1150,1.0,1.0,1.0,a,1.0,1.0,1.0,a,-1.0,1.0,1.0,a,62,75,0.0
2,stim/client_-1_-1_-1a.png,stim/house_1_1_-1a.png,stim/house_-1_1_1d.png,25,37,-12,rhouse,550,1100,-1.0,-1.0,-1.0,a,1.0,1.0,-1.0,a,-1.0,1.0,1.0,d,25,37,0.0
