,client_stim,lhouse_stim,rhouse_stim,lhouse_reward,rhouse_reward,diff_reward,correct,ISI,ITI,client_f1,client_f2,client_f3,client_exemplar,lhouse_f1,lhouse_f2,lhouse_f3,lhouse_exemplar,rhouse_f1,rhouse_f2,rhouse_f3,rhouse_exemplar,min_reward,max_reward,is_training
0,stim/client_1_1_1d.png,stim/house_1_-1_1b.png,stim/house_-1_1_1b.png,37,62,-25,rhouse,400,1400,1.0,1.0,1.0,d,1.0,-1.0,1.0,b,-1.0,1.0,1.0,b,37,62,0.0
1,stim/client_1_-1_1d.png,stim/house_1_-1_-1b.png,stim/house_-1_-1_-1b.png,25,0,25,lhouse,500,1100,1.0,-1.0,1.0,d,1.0,-1.0,-1.0,b,-1.0,-1.0,-1.0,b,0,25,0.0
2,stim/client_-1_1_1d.png,stim/house_1_1_-1b.png,stim/house_-1_-1_1b.png,0,100,-100,rhouse,450,1150,-1.0,1.0,1.0,d,1.0,1.0,-1.0,b,-1.0,-1.0,1.0,b,0,100,0.0
