,client_stim,lhouse_stim,rhouse_stim,lhouse_reward,rhouse_reward,diff_reward,correct,ISI,ITI,client_f1,client_f2,client_f3,client_exemplar,lhouse_f1,lhouse_f2,lhouse_f3,lhouse_exemplar,rhouse_f1,rhouse_f2,rhouse_f3,rhouse_exemplar,min_reward,max_reward,is_training
0,stim/client_1_-1_-1d.png,stim/house_1_-1_-1d.png,stim/house_1_1_1d.png,25,100,-75,rhouse,500,1250,1.0,-1.0,-1.0,d,1.0,-1.0,-1.0,d,1.0,1.0,1.0,d,25,100,0.0
1,stim/client_1_1_-1d.png,stim/house_1_1_-1d.png,stim/house_-1_-1_1d.png,75,25,50,lhouse,450,1000,1.0,1.0,-1.0,d,1.0,1.0,-1.0,d,-1.0,-1.0,1.0,d,25,75,0.0
2,stim/client_-1_-1_-1d.png,stim/house_-1_1_-1d.png,stim/house_-1_-1_1d.png,37,75,-38,rhouse,450,1000,-1.0,-1.0,-1.0,d,-1.0,1.0,-1.0,d,-1.0,-1.0,1.0,d,37,75,0.0
