,client_stim,lhouse_stim,rhouse_stim,lhouse_reward,rhouse_reward,diff_reward,correct,ISI,ITI,client_f1,client_f2,client_f3,client_exemplar,lhouse_f1,lhouse_f2,lhouse_f3,lhouse_exemplar,rhouse_f1,rhouse_f2,rhouse_f3,rhouse_exemplar,min_reward,max_reward,is_training
0,stim/client_-1_-1_-1b.png,stim/house_-1_-1_-1b.png,stim/house_1_-1_-1b.png,75,62,13,lhouse,450,1250,-1.0,-1.0,-1.0,b,-1.0,-1.0,-1.0,b,1.0,-1.0,-1.0,b,62,75,0.0
1,stim/client_1_-1_-1b.png,stim/house_-1_1_1b.png,stim/house_1_1_1b.png,75,100,-25,rhouse,550,1200,1.0,-1.0,-1.0,b,-1.0,1.0,1.0,b,1.0,1.0,1.0,b,75,100,0.0
2,stim/client_-1_-1_-1d.png,stim/house_1_-1_1b.png,stim/house_-1_-1_-1c.png,62,75,-13,rhouse,500,1150,-1.0,-1.0,-1.0,d,1.0,-1.0,1.0,b,-1.0,-1.0,-1.0,c,62,75,0.0
