,client_stim,lhouse_stim,rhouse_stim,lhouse_reward,rhouse_reward,diff_reward,correct,ISI,ITI,client_f1,client_f2,client_f3,client_exemplar,lhouse_f1,lhouse_f2,lhouse_f3,lhouse_exemplar,rhouse_f1,rhouse_f2,rhouse_f3,rhouse_exemplar,min_reward,max_reward,is_training
0,stim/client_1_-1_1b.png,stim/house_-1_-1_1d.png,stim/house_-1_1_1d.png,0,75,-75,rhouse,400,1000,1.0,-1.0,1.0,b,-1.0,-1.0,1.0,d,-1.0,1.0,1.0,d,0,75,0.0
1,stim/client_-1_1_1b.png,stim/house_1_1_-1d.png,stim/house_-1_-1_1d.png,0,100,-100,rhouse,450,1200,-1.0,1.0,1.0,b,1.0,1.0,-1.0,d,-1.0,-1.0,1.0,d,0,100,0.0
2,stim/client_1_-1_-1b.png,stim/house_1_1_-1d.png,stim/house_-1_1_1d.png,100,75,25,lhouse,550,1450,1.0,-1.0,-1.0,b,1.0,1.0,-1.0,d,-1.0,1.0,1.0,d,75,100,0.0
