,client_stim,lhouse_stim,rhouse_stim,lhouse_reward,rhouse_reward,diff_reward,correct,ISI,ITI,client_f1,client_f2,client_f3,client_exemplar,lhouse_f1,lhouse_f2,lhouse_f3,lhouse_exemplar,rhouse_f1,rhouse_f2,rhouse_f3,rhouse_exemplar,min_reward,max_reward,is_training
0,stim/client_1_-1_1a.png,stim/house_1_1_-1b.png,stim/house_-1_-1_1b.png,100,0,100,lhouse,550,1300,1.0,-1.0,1.0,a,1.0,1.0,-1.0,b,-1.0,-1.0,1.0,b,0,100,0.0
1,stim/client_1_1_-1a.png,stim/house_-1_1_1b.png,stim/house_1_1_1b.png,62,75,-13,rhouse,550,1100,1.0,1.0,-1.0,a,-1.0,1.0,1.0,b,1.0,1.0,1.0,b,62,75,0.0
2,stim/client_-1_-1_1a.png,stim/house_1_-1_1b.png,stim/house_1_1_-1b.png,62,25,37,lhouse,450,1400,-1.0,-1.0,1.0,a,1.0,-1.0,1.0,b,1.0,1.0,-1.0,b,25,62,0.0
