,client_stim,lhouse_stim,rhouse_stim,lhouse_reward,rhouse_reward,diff_reward,correct,ISI,ITI,client_f1,client_f2,client_f3,client_exemplar,lhouse_f1,lhouse_f2,lhouse_f3,lhouse_exemplar,rhouse_f1,rhouse_f2,rhouse_f3,rhouse_exemplar,min_reward,max_reward,is_training
0,stim/client_-1_-1_-1d.png,stim/house_-1_-1_1c.png,stim/house_-1_1_-1c.png,75,37,38,lhouse,500,1250,-1.0,-1.0,-1.0,d,-1.0,-1.0,1.0,c,-1.0,1.0,-1.0,c,37,75,0.0
1,stim/client_1_1_-1d.png,stim/house_1_-1_1c.png,stim/house_-1_1_1c.png,37,62,-25,rhouse,500,1400,1.0,1.0,-1.0,d,1.0,-1.0,1.0,c,-1.0,1.0,1.0,c,37,62,0.0
2,stim/client_-1_1_-1d.png,stim/house_-1_-1_-1c.png,stim/house_-1_1_-1a.png,100,25,75,lhouse,550,1100,-1.0,1.0,-1.0,d,-1.0,-1.0,-1.0,c,-1.0,1.0,-1.0,a,25,100,0.0
